Epoch 1/100
60000/60000 [==============================] - 117s 2ms/sample - loss: 1.0396 - acc: 0.6486 - val_loss: 0.7858 - val_acc: 0.7228
Epoch 2/100
60000/60000 [==============================] - 117s 2ms/sample - loss: 0.7437 - acc: 0.7601 - val_loss: 0.7590 - val_acc: 0.7712
Epoch 3/100
60000/60000 [==============================] - 117s 2ms/sample - loss: 0.7288 - acc: 0.7870 - val_loss: 0.7674 - val_acc: 0.7825
Epoch 4/100
60000/60000 [==============================] - 117s 2ms/sample - loss: 0.7234 - acc: 0.8007 - val_loss: 0.7528 - val_acc: 0.7946
Epoch 5/100
60000/60000 [==============================] - 118s 2ms/sample - loss: 0.7235 - acc: 0.8093 - val_loss: 0.7732 - val_acc: 0.8011
Epoch 6/100
60000/60000 [==============================] - 117s 2ms/sample - loss: 0.7231 - acc: 0.8153 - val_loss: 0.7732 - val_acc: 0.8063
Epoch 7/100
60000/60000 [==============================] - 118s 2ms/sample - loss: 0.7242 - acc: 0.8193 - val_loss: 0.7580 - val_acc: 0.8142
Epoch 8/100
60000/60000 [==============================] - 117s 2ms/sample - loss: 0.7238 - acc: 0.8238 - val_loss: 0.7656 - val_acc: 0.8144
Epoch 9/100
60000/60000 [==============================] - 117s 2ms/sample - loss: 0.7301 - acc: 0.8258 - val_loss: 0.7805 - val_acc: 0.8209
Epoch 10/100
60000/60000 [==============================] - 118s 2ms/sample - loss: 0.7280 - acc: 0.8290 - val_loss: 0.7795 - val_acc: 0.8190
Epoch 11/100
60000/60000 [==============================] - 118s 2ms/sample - loss: 0.7255 - acc: 0.8303 - val_loss: 0.7716 - val_acc: 0.8239
Epoch 12/100
60000/60000 [==============================] - 118s 2ms/sample - loss: 0.7308 - acc: 0.8329 - val_loss: 0.7755 - val_acc: 0.8267
Epoch 13/100
60000/60000 [==============================] - 118s 2ms/sample - loss: 0.7264 - acc: 0.8344 - val_loss: 0.7961 - val_acc: 0.8283
Epoch 14/100
60000/60000 [==============================] - 118s 2ms/sample - loss: 0.7305 - acc: 0.8361 - val_loss: 0.7862 - val_acc: 0.8283
Epoch 15/100
60000/60000 [==============================] - 118s 2ms/sample - loss: 0.7377 - acc: 0.8370 - val_loss: 0.8048 - val_acc: 0.8296
Epoch 16/100
60000/60000 [==============================] - 118s 2ms/sample - loss: 0.7340 - acc: 0.8393 - val_loss: 0.8081 - val_acc: 0.8301
Epoch 17/100
60000/60000 [==============================] - 118s 2ms/sample - loss: 0.7382 - acc: 0.8405 - val_loss: 0.8170 - val_acc: 0.8332
Epoch 18/100
60000/60000 [==============================] - 118s 2ms/sample - loss: 0.7430 - acc: 0.8413 - val_loss: 0.8377 - val_acc: 0.8327
Epoch 19/100
60000/60000 [==============================] - 117s 2ms/sample - loss: 0.7471 - acc: 0.8431 - val_loss: 0.8261 - val_acc: 0.8320
Epoch 20/100
60000/60000 [==============================] - 118s 2ms/sample - loss: 0.7471 - acc: 0.8442 - val_loss: 0.8433 - val_acc: 0.8318
Epoch 21/100
60000/60000 [==============================] - 118s 2ms/sample - loss: 0.7592 - acc: 0.8448 - val_loss: 0.8569 - val_acc: 0.8356
Epoch 22/100
60000/60000 [==============================] - 118s 2ms/sample - loss: 0.7688 - acc: 0.8450 - val_loss: 0.8644 - val_acc: 0.8353
Epoch 23/100
60000/60000 [==============================] - 118s 2ms/sample - loss: 0.7714 - acc: 0.8464 - val_loss: 0.8536 - val_acc: 0.8361
Epoch 24/100
60000/60000 [==============================] - 118s 2ms/sample - loss: 0.7693 - acc: 0.8474 - val_loss: 0.8596 - val_acc: 0.8365
Epoch 25/100
60000/60000 [==============================] - 118s 2ms/sample - loss: 0.7721 - acc: 0.8465 - val_loss: 0.8712 - val_acc: 0.8386
Epoch 26/100
60000/60000 [==============================] - 118s 2ms/sample - loss: 0.7837 - acc: 0.8464 - val_loss: 0.8714 - val_acc: 0.8379
Epoch 27/100
60000/60000 [==============================] - 118s 2ms/sample - loss: 0.7834 - acc: 0.8475 - val_loss: 0.9180 - val_acc: 0.8357
Epoch 28/100
60000/60000 [==============================] - 118s 2ms/sample - loss: 0.7856 - acc: 0.8473 - val_loss: 0.8763 - val_acc: 0.8350
Epoch 29/100
60000/60000 [==============================] - 118s 2ms/sample - loss: 0.7899 - acc: 0.8481 - val_loss: 0.8874 - val_acc: 0.8355
Epoch 30/100
60000/60000 [==============================] - 118s 2ms/sample - loss: 0.7850 - acc: 0.8482 - val_loss: 0.8820 - val_acc: 0.8377
Epoch 31/100
60000/60000 [==============================] - 118s 2ms/sample - loss: 0.7766 - acc: 0.8483 - val_loss: 0.8823 - val_acc: 0.8380
Epoch 32/100
60000/60000 [==============================] - 118s 2ms/sample - loss: 0.7912 - acc: 0.8494 - val_loss: 0.9247 - val_acc: 0.8386
Epoch 33/100
60000/60000 [==============================] - 119s 2ms/sample - loss: 0.8011 - acc: 0.8502 - val_loss: 0.8922 - val_acc: 0.8392
Epoch 34/100
60000/60000 [==============================] - 118s 2ms/sample - loss: 0.8063 - acc: 0.8497 - val_loss: 0.8939 - val_acc: 0.8373
Epoch 35/100
60000/60000 [==============================] - 118s 2ms/sample - loss: 0.7979 - acc: 0.8502 - val_loss: 0.9233 - val_acc: 0.8379
Epoch 36/100
60000/60000 [==============================] - 118s 2ms/sample - loss: 0.8117 - acc: 0.8506 - val_loss: 0.9116 - val_acc: 0.8378
Epoch 37/100
60000/60000 [==============================] - 118s 2ms/sample - loss: 0.8208 - acc: 0.8508 - val_loss: 0.9255 - val_acc: 0.8387
Epoch 38/100
60000/60000 [==============================] - 118s 2ms/sample - loss: 0.8170 - acc: 0.8507 - val_loss: 0.9244 - val_acc: 0.8384
Epoch 39/100
60000/60000 [==============================] - 118s 2ms/sample - loss: 0.8189 - acc: 0.8515 - val_loss: 0.9424 - val_acc: 0.8388
Epoch 40/100
60000/60000 [==============================] - 118s 2ms/sample - loss: 0.8250 - acc: 0.8511 - val_loss: 0.9307 - val_acc: 0.8371
Epoch 41/100
60000/60000 [==============================] - 118s 2ms/sample - loss: 0.8226 - acc: 0.8527 - val_loss: 0.9683 - val_acc: 0.8387
Epoch 42/100
60000/60000 [==============================] - 117s 2ms/sample - loss: 0.8271 - acc: 0.8537 - val_loss: 0.9431 - val_acc: 0.8400
Epoch 43/100
60000/60000 [==============================] - 118s 2ms/sample - loss: 0.8343 - acc: 0.8533 - val_loss: 0.9695 - val_acc: 0.8388
Epoch 44/100
60000/60000 [==============================] - 118s 2ms/sample - loss: 0.8370 - acc: 0.8531 - val_loss: 0.9496 - val_acc: 0.8412
Epoch 45/100
60000/60000 [==============================] - 118s 2ms/sample - loss: 0.8176 - acc: 0.8543 - val_loss: 0.9401 - val_acc: 0.8374
Epoch 46/100
60000/60000 [==============================] - 118s 2ms/sample - loss: 0.8238 - acc: 0.8538 - val_loss: 0.9804 - val_acc: 0.8369
Epoch 47/100
60000/60000 [==============================] - 117s 2ms/sample - loss: 0.8308 - acc: 0.8544 - val_loss: 0.9547 - val_acc: 0.8356
Epoch 48/100
60000/60000 [==============================] - 117s 2ms/sample - loss: 0.8392 - acc: 0.8539 - val_loss: 0.9771 - val_acc: 0.8377
Epoch 49/100
60000/60000 [==============================] - 118s 2ms/sample - loss: 0.8475 - acc: 0.8539 - val_loss: 0.9823 - val_acc: 0.8375
Epoch 50/100
60000/60000 [==============================] - 118s 2ms/sample - loss: 0.8551 - acc: 0.8528 - val_loss: 0.9947 - val_acc: 0.8335
Epoch 51/100
60000/60000 [==============================] - 118s 2ms/sample - loss: 0.8572 - acc: 0.8555 - val_loss: 1.0019 - val_acc: 0.8383
Epoch 52/100
60000/60000 [==============================] - 118s 2ms/sample - loss: 0.8702 - acc: 0.8547 - val_loss: 1.0064 - val_acc: 0.8400
Epoch 53/100
60000/60000 [==============================] - 118s 2ms/sample - loss: 0.8650 - acc: 0.8551 - val_loss: 1.0047 - val_acc: 0.8407
Epoch 54/100
60000/60000 [==============================] - 118s 2ms/sample - loss: 0.8638 - acc: 0.8545 - val_loss: 1.0167 - val_acc: 0.8400
Epoch 55/100
60000/60000 [==============================] - 118s 2ms/sample - loss: 0.8708 - acc: 0.8545 - val_loss: 0.9987 - val_acc: 0.8420
Epoch 56/100
60000/60000 [==============================] - 118s 2ms/sample - loss: 0.8584 - acc: 0.8551 - val_loss: 0.9829 - val_acc: 0.8397
Epoch 57/100
60000/60000 [==============================] - 118s 2ms/sample - loss: 0.8565 - acc: 0.8553 - val_loss: 1.0128 - val_acc: 0.8385
Epoch 58/100
60000/60000 [==============================] - 118s 2ms/sample - loss: 0.8587 - acc: 0.8556 - val_loss: 1.0043 - val_acc: 0.8400
Epoch 59/100
60000/60000 [==============================] - 118s 2ms/sample - loss: 0.8590 - acc: 0.8555 - val_loss: 1.0005 - val_acc: 0.8421
Epoch 60/100
60000/60000 [==============================] - 118s 2ms/sample - loss: 0.8761 - acc: 0.8558 - val_loss: 1.0211 - val_acc: 0.8397
Epoch 61/100
60000/60000 [==============================] - 118s 2ms/sample - loss: 0.8910 - acc: 0.8552 - val_loss: 1.0216 - val_acc: 0.8406
Epoch 62/100
60000/60000 [==============================] - 118s 2ms/sample - loss: 0.8938 - acc: 0.8549 - val_loss: 1.0196 - val_acc: 0.8407
Epoch 63/100
60000/60000 [==============================] - 118s 2ms/sample - loss: 0.8959 - acc: 0.8550 - val_loss: 1.0326 - val_acc: 0.8412
Epoch 64/100
60000/60000 [==============================] - 118s 2ms/sample - loss: 0.8983 - acc: 0.8558 - val_loss: 1.0200 - val_acc: 0.8424
Epoch 65/100
60000/60000 [==============================] - 119s 2ms/sample - loss: 0.8945 - acc: 0.8550 - val_loss: 1.0102 - val_acc: 0.8416
Epoch 66/100
60000/60000 [==============================] - 119s 2ms/sample - loss: 0.8884 - acc: 0.8554 - val_loss: 1.0364 - val_acc: 0.8430
Epoch 67/100
60000/60000 [==============================] - 119s 2ms/sample - loss: 0.9077 - acc: 0.8555 - val_loss: 1.0666 - val_acc: 0.8424
Epoch 68/100
60000/60000 [==============================] - 118s 2ms/sample - loss: 0.9212 - acc: 0.8555 - val_loss: 1.0834 - val_acc: 0.8412
Epoch 69/100
60000/60000 [==============================] - 118s 2ms/sample - loss: 0.9233 - acc: 0.8567 - val_loss: 1.0738 - val_acc: 0.8384
Epoch 70/100
60000/60000 [==============================] - 118s 2ms/sample - loss: 0.9175 - acc: 0.8561 - val_loss: 1.0353 - val_acc: 0.8427
Epoch 71/100
60000/60000 [==============================] - 118s 2ms/sample - loss: 0.9002 - acc: 0.8554 - val_loss: 1.0428 - val_acc: 0.8431
Epoch 72/100
60000/60000 [==============================] - 118s 2ms/sample - loss: 0.9012 - acc: 0.8569 - val_loss: 1.0387 - val_acc: 0.8418
Epoch 73/100
60000/60000 [==============================] - 118s 2ms/sample - loss: 0.9017 - acc: 0.8565 - val_loss: 1.0585 - val_acc: 0.8363
Epoch 74/100
60000/60000 [==============================] - 118s 2ms/sample - loss: 0.9017 - acc: 0.8559 - val_loss: 1.0363 - val_acc: 0.8415
Epoch 75/100
60000/60000 [==============================] - 118s 2ms/sample - loss: 0.8981 - acc: 0.8573 - val_loss: 1.0366 - val_acc: 0.8409
Epoch 76/100
60000/60000 [==============================] - 115s 2ms/sample - loss: 0.9002 - acc: 0.8564 - val_loss: 1.0568 - val_acc: 0.8386
Epoch 77/100
60000/60000 [==============================] - 116s 2ms/sample - loss: 0.9224 - acc: 0.8554 - val_loss: 1.0756 - val_acc: 0.8413
Epoch 78/100
60000/60000 [==============================] - 115s 2ms/sample - loss: 0.9399 - acc: 0.8564 - val_loss: 1.0779 - val_acc: 0.8408
Epoch 79/100
60000/60000 [==============================] - 116s 2ms/sample - loss: 0.9514 - acc: 0.8572 - val_loss: 1.1111 - val_acc: 0.8418
Epoch 80/100
60000/60000 [==============================] - 116s 2ms/sample - loss: 0.9643 - acc: 0.8574 - val_loss: 1.0996 - val_acc: 0.8408
Epoch 81/100
60000/60000 [==============================] - 116s 2ms/sample - loss: 0.9488 - acc: 0.8573 - val_loss: 1.1318 - val_acc: 0.8400
Epoch 82/100
60000/60000 [==============================] - 115s 2ms/sample - loss: 0.9572 - acc: 0.8577 - val_loss: 1.1231 - val_acc: 0.8420
Epoch 83/100
60000/60000 [==============================] - 116s 2ms/sample - loss: 0.9649 - acc: 0.8562 - val_loss: 1.1122 - val_acc: 0.8395
Epoch 84/100
60000/60000 [==============================] - 116s 2ms/sample - loss: 0.9598 - acc: 0.8555 - val_loss: 1.1130 - val_acc: 0.8395
Epoch 85/100
60000/60000 [==============================] - 115s 2ms/sample - loss: 0.9624 - acc: 0.8567 - val_loss: 1.1192 - val_acc: 0.8402
Epoch 86/100
60000/60000 [==============================] - 115s 2ms/sample - loss: 0.9724 - acc: 0.8573 - val_loss: 1.1244 - val_acc: 0.8399
Epoch 87/100
60000/60000 [==============================] - 116s 2ms/sample - loss: 0.9728 - acc: 0.8582 - val_loss: 1.1659 - val_acc: 0.8397
Epoch 88/100
60000/60000 [==============================] - 116s 2ms/sample - loss: 0.9848 - acc: 0.8562 - val_loss: 1.1585 - val_acc: 0.8397
Epoch 89/100
60000/60000 [==============================] - 116s 2ms/sample - loss: 0.9911 - acc: 0.8565 - val_loss: 1.1623 - val_acc: 0.8396
Epoch 90/100
60000/60000 [==============================] - 116s 2ms/sample - loss: 0.9997 - acc: 0.8568 - val_loss: 1.1887 - val_acc: 0.8408
Epoch 91/100
60000/60000 [==============================] - 116s 2ms/sample - loss: 0.9947 - acc: 0.8582 - val_loss: 1.1689 - val_acc: 0.8391
Epoch 92/100
60000/60000 [==============================] - 116s 2ms/sample - loss: 0.9933 - acc: 0.8575 - val_loss: 1.1971 - val_acc: 0.8382
Epoch 93/100
60000/60000 [==============================] - 116s 2ms/sample - loss: 1.0072 - acc: 0.8576 - val_loss: 1.1920 - val_acc: 0.8411
Epoch 94/100
60000/60000 [==============================] - 116s 2ms/sample - loss: 1.0239 - acc: 0.8567 - val_loss: 1.2138 - val_acc: 0.8392
Epoch 95/100
60000/60000 [==============================] - 116s 2ms/sample - loss: 1.0260 - acc: 0.8582 - val_loss: 1.2143 - val_acc: 0.8405
Epoch 96/100
60000/60000 [==============================] - 111s 2ms/sample - loss: 1.0373 - acc: 0.8576 - val_loss: 1.2088 - val_acc: 0.8392
Epoch 97/100
60000/60000 [==============================] - 112s 2ms/sample - loss: 1.0344 - acc: 0.8573 - val_loss: 1.2097 - val_acc: 0.8359
Epoch 98/100
60000/60000 [==============================] - 112s 2ms/sample - loss: 1.0285 - acc: 0.8577 - val_loss: 1.2205 - val_acc: 0.8370
Epoch 99/100
60000/60000 [==============================] - 111s 2ms/sample - loss: 1.0242 - acc: 0.8564 - val_loss: 1.2209 - val_acc: 0.8361
Epoch 100/100
60000/60000 [==============================] - 111s 2ms/sample - loss: 1.0246 - acc: 0.8570 - val_loss: 1.2371 - val_acc: 0.8364
For delta=1e-5, the current epsilon is: 2.97
