Noise Multiplier: 5
Epoch 1/100
60000/60000 [==============================] - 125s 2ms/sample - loss: 2.1300 - acc: 0.2461 - val_loss: 1.8586 - val_acc: 0.3464
Epoch 2/100
60000/60000 [==============================] - 124s 2ms/sample - loss: 1.5546 - acc: 0.4606 - val_loss: 1.3102 - val_acc: 0.5282
Epoch 3/100
60000/60000 [==============================] - 124s 2ms/sample - loss: 1.2038 - acc: 0.5398 - val_loss: 1.0993 - val_acc: 0.5771
Epoch 4/100
60000/60000 [==============================] - 124s 2ms/sample - loss: 1.0647 - acc: 0.5941 - val_loss: 1.0349 - val_acc: 0.6006
Epoch 5/100
60000/60000 [==============================] - 124s 2ms/sample - loss: 0.9861 - acc: 0.6399 - val_loss: 0.9854 - val_acc: 0.6486
Epoch 6/100
60000/60000 [==============================] - 124s 2ms/sample - loss: 0.9787 - acc: 0.6523 - val_loss: 0.9811 - val_acc: 0.6485
Epoch 7/100
60000/60000 [==============================] - 124s 2ms/sample - loss: 0.9771 - acc: 0.6638 - val_loss: 0.9856 - val_acc: 0.6770
Epoch 8/100
60000/60000 [==============================] - 123s 2ms/sample - loss: 0.9927 - acc: 0.6724 - val_loss: 1.0028 - val_acc: 0.6788
Epoch 9/100
60000/60000 [==============================] - 124s 2ms/sample - loss: 0.9975 - acc: 0.6835 - val_loss: 1.0018 - val_acc: 0.6899
Epoch 10/100
60000/60000 [==============================] - 124s 2ms/sample - loss: 1.0259 - acc: 0.6874 - val_loss: 1.0641 - val_acc: 0.6866
Epoch 11/100
60000/60000 [==============================] - 124s 2ms/sample - loss: 1.0378 - acc: 0.6892 - val_loss: 1.0788 - val_acc: 0.6876
Epoch 12/100
60000/60000 [==============================] - 123s 2ms/sample - loss: 1.0537 - acc: 0.6898 - val_loss: 1.0756 - val_acc: 0.6824
Epoch 13/100
60000/60000 [==============================] - 123s 2ms/sample - loss: 1.0458 - acc: 0.6946 - val_loss: 1.0601 - val_acc: 0.6914
Epoch 14/100
60000/60000 [==============================] - 123s 2ms/sample - loss: 1.0288 - acc: 0.6996 - val_loss: 1.0359 - val_acc: 0.6944
Epoch 15/100
60000/60000 [==============================] - 124s 2ms/sample - loss: 1.0105 - acc: 0.7074 - val_loss: 1.0606 - val_acc: 0.7078
Epoch 16/100
60000/60000 [==============================] - 123s 2ms/sample - loss: 1.0182 - acc: 0.7089 - val_loss: 1.0335 - val_acc: 0.7099
Epoch 17/100
60000/60000 [==============================] - 123s 2ms/sample - loss: 1.0086 - acc: 0.7150 - val_loss: 1.0558 - val_acc: 0.7069
Epoch 18/100
60000/60000 [==============================] - 123s 2ms/sample - loss: 1.0380 - acc: 0.7164 - val_loss: 1.1057 - val_acc: 0.7081
Epoch 19/100
60000/60000 [==============================] - 124s 2ms/sample - loss: 1.0451 - acc: 0.7213 - val_loss: 1.0936 - val_acc: 0.7139
Epoch 20/100
60000/60000 [==============================] - 124s 2ms/sample - loss: 1.0484 - acc: 0.7226 - val_loss: 1.0862 - val_acc: 0.7180
Epoch 21/100
60000/60000 [==============================] - 124s 2ms/sample - loss: 1.0359 - acc: 0.7233 - val_loss: 1.0521 - val_acc: 0.7166
Epoch 22/100
60000/60000 [==============================] - 124s 2ms/sample - loss: 1.0579 - acc: 0.7281 - val_loss: 1.1225 - val_acc: 0.7202
Epoch 23/100
60000/60000 [==============================] - 124s 2ms/sample - loss: 1.0617 - acc: 0.7288 - val_loss: 1.1354 - val_acc: 0.7142
Epoch 24/100
60000/60000 [==============================] - 124s 2ms/sample - loss: 1.0562 - acc: 0.7288 - val_loss: 1.0466 - val_acc: 0.7229
Epoch 25/100
60000/60000 [==============================] - 124s 2ms/sample - loss: 1.0363 - acc: 0.7303 - val_loss: 1.0379 - val_acc: 0.7296
Epoch 26/100
60000/60000 [==============================] - 124s 2ms/sample - loss: 1.0667 - acc: 0.7321 - val_loss: 1.1186 - val_acc: 0.7255
Epoch 27/100
60000/60000 [==============================] - 124s 2ms/sample - loss: 1.0712 - acc: 0.7345 - val_loss: 1.1091 - val_acc: 0.7306
Epoch 28/100
60000/60000 [==============================] - 124s 2ms/sample - loss: 1.0675 - acc: 0.7327 - val_loss: 1.1052 - val_acc: 0.7276
Epoch 29/100
60000/60000 [==============================] - 124s 2ms/sample - loss: 1.0641 - acc: 0.7347 - val_loss: 1.1700 - val_acc: 0.7270
Epoch 30/100
60000/60000 [==============================] - 125s 2ms/sample - loss: 1.0655 - acc: 0.7367 - val_loss: 1.0833 - val_acc: 0.7271
Epoch 31/100
60000/60000 [==============================] - 124s 2ms/sample - loss: 1.0456 - acc: 0.7388 - val_loss: 1.1134 - val_acc: 0.7353
Epoch 32/100
60000/60000 [==============================] - 124s 2ms/sample - loss: 1.0493 - acc: 0.7439 - val_loss: 1.0950 - val_acc: 0.7355
Epoch 33/100
60000/60000 [==============================] - 124s 2ms/sample - loss: 1.0437 - acc: 0.7441 - val_loss: 1.1228 - val_acc: 0.7345
Epoch 34/100
60000/60000 [==============================] - 124s 2ms/sample - loss: 1.0570 - acc: 0.7432 - val_loss: 1.1364 - val_acc: 0.7375
Epoch 35/100
60000/60000 [==============================] - 124s 2ms/sample - loss: 1.0758 - acc: 0.7416 - val_loss: 1.1286 - val_acc: 0.7393
Epoch 36/100
60000/60000 [==============================] - 124s 2ms/sample - loss: 1.0900 - acc: 0.7427 - val_loss: 1.1315 - val_acc: 0.7383
Epoch 37/100
60000/60000 [==============================] - 124s 2ms/sample - loss: 1.0758 - acc: 0.7457 - val_loss: 1.0661 - val_acc: 0.7414
Epoch 38/100
60000/60000 [==============================] - 124s 2ms/sample - loss: 1.0624 - acc: 0.7464 - val_loss: 1.1082 - val_acc: 0.7425
Epoch 39/100
60000/60000 [==============================] - 124s 2ms/sample - loss: 1.0665 - acc: 0.7469 - val_loss: 1.1314 - val_acc: 0.7443
Epoch 40/100
60000/60000 [==============================] - 124s 2ms/sample - loss: 1.0810 - acc: 0.7501 - val_loss: 1.1127 - val_acc: 0.7430
Epoch 41/100
60000/60000 [==============================] - 124s 2ms/sample - loss: 1.0706 - acc: 0.7501 - val_loss: 1.1331 - val_acc: 0.7423
Epoch 42/100
60000/60000 [==============================] - 124s 2ms/sample - loss: 1.0724 - acc: 0.7513 - val_loss: 1.0926 - val_acc: 0.7438
Epoch 43/100
60000/60000 [==============================] - 124s 2ms/sample - loss: 1.0825 - acc: 0.7501 - val_loss: 1.1666 - val_acc: 0.7464
Epoch 44/100
60000/60000 [==============================] - 124s 2ms/sample - loss: 1.1036 - acc: 0.7494 - val_loss: 1.1508 - val_acc: 0.7351
Epoch 45/100
60000/60000 [==============================] - 124s 2ms/sample - loss: 1.0951 - acc: 0.7509 - val_loss: 1.1327 - val_acc: 0.7424
Epoch 46/100
60000/60000 [==============================] - 127s 2ms/sample - loss: 1.0960 - acc: 0.7505 - val_loss: 1.1489 - val_acc: 0.7375
Epoch 47/100
60000/60000 [==============================] - 124s 2ms/sample - loss: 1.1161 - acc: 0.7487 - val_loss: 1.1285 - val_acc: 0.7408
Epoch 48/100
60000/60000 [==============================] - 124s 2ms/sample - loss: 1.1323 - acc: 0.7474 - val_loss: 1.2262 - val_acc: 0.7409
Epoch 49/100
60000/60000 [==============================] - 124s 2ms/sample - loss: 1.1414 - acc: 0.7494 - val_loss: 1.1576 - val_acc: 0.7430
Epoch 50/100
60000/60000 [==============================] - 124s 2ms/sample - loss: 1.1147 - acc: 0.7515 - val_loss: 1.1394 - val_acc: 0.7457
Epoch 51/100
60000/60000 [==============================] - 124s 2ms/sample - loss: 1.1373 - acc: 0.7517 - val_loss: 1.1437 - val_acc: 0.7482
Epoch 52/100
60000/60000 [==============================] - 124s 2ms/sample - loss: 1.1288 - acc: 0.7535 - val_loss: 1.1798 - val_acc: 0.7504
Epoch 53/100
60000/60000 [==============================] - 125s 2ms/sample - loss: 1.1259 - acc: 0.7534 - val_loss: 1.1929 - val_acc: 0.7467
Epoch 54/100
60000/60000 [==============================] - 125s 2ms/sample - loss: 1.1223 - acc: 0.7551 - val_loss: 1.1569 - val_acc: 0.7499
Epoch 55/100
60000/60000 [==============================] - 125s 2ms/sample - loss: 1.1081 - acc: 0.7566 - val_loss: 1.1148 - val_acc: 0.7555
Epoch 56/100
60000/60000 [==============================] - 125s 2ms/sample - loss: 1.1063 - acc: 0.7569 - val_loss: 1.1586 - val_acc: 0.7508
Epoch 57/100
60000/60000 [==============================] - 125s 2ms/sample - loss: 1.1117 - acc: 0.7561 - val_loss: 1.1231 - val_acc: 0.7523
Epoch 58/100
60000/60000 [==============================] - 125s 2ms/sample - loss: 1.0987 - acc: 0.7580 - val_loss: 1.1229 - val_acc: 0.7488
Epoch 59/100
60000/60000 [==============================] - 126s 2ms/sample - loss: 1.1298 - acc: 0.7561 - val_loss: 1.1848 - val_acc: 0.7466
Epoch 60/100
60000/60000 [==============================] - 125s 2ms/sample - loss: 1.1486 - acc: 0.7533 - val_loss: 1.1651 - val_acc: 0.7490
Epoch 61/100
60000/60000 [==============================] - 125s 2ms/sample - loss: 1.1331 - acc: 0.7547 - val_loss: 1.1324 - val_acc: 0.7549
Epoch 62/100
60000/60000 [==============================] - 125s 2ms/sample - loss: 1.1293 - acc: 0.7553 - val_loss: 1.1360 - val_acc: 0.7553
Epoch 63/100
60000/60000 [==============================] - 125s 2ms/sample - loss: 1.1610 - acc: 0.7565 - val_loss: 1.2312 - val_acc: 0.7478
Epoch 64/100
60000/60000 [==============================] - 125s 2ms/sample - loss: 1.1664 - acc: 0.7546 - val_loss: 1.1577 - val_acc: 0.7512
Epoch 65/100
60000/60000 [==============================] - 125s 2ms/sample - loss: 1.1498 - acc: 0.7558 - val_loss: 1.1307 - val_acc: 0.7574
Epoch 66/100
60000/60000 [==============================] - 125s 2ms/sample - loss: 1.1475 - acc: 0.7597 - val_loss: 1.2184 - val_acc: 0.7557
Epoch 67/100
60000/60000 [==============================] - 125s 2ms/sample - loss: 1.1460 - acc: 0.7581 - val_loss: 1.1601 - val_acc: 0.7566
Epoch 68/100
60000/60000 [==============================] - 125s 2ms/sample - loss: 1.1611 - acc: 0.7588 - val_loss: 1.2185 - val_acc: 0.7512
Epoch 69/100
60000/60000 [==============================] - 126s 2ms/sample - loss: 1.1659 - acc: 0.7578 - val_loss: 1.1665 - val_acc: 0.7571
Epoch 70/100
60000/60000 [==============================] - 125s 2ms/sample - loss: 1.1510 - acc: 0.7607 - val_loss: 1.1990 - val_acc: 0.7567
Epoch 71/100
60000/60000 [==============================] - 126s 2ms/sample - loss: 1.1832 - acc: 0.7580 - val_loss: 1.2251 - val_acc: 0.7537
Epoch 72/100
60000/60000 [==============================] - 125s 2ms/sample - loss: 1.1771 - acc: 0.7566 - val_loss: 1.1993 - val_acc: 0.7551
Epoch 73/100
60000/60000 [==============================] - 125s 2ms/sample - loss: 1.2143 - acc: 0.7584 - val_loss: 1.2198 - val_acc: 0.7584
Epoch 74/100
60000/60000 [==============================] - 126s 2ms/sample - loss: 1.1859 - acc: 0.7605 - val_loss: 1.2064 - val_acc: 0.7578
Epoch 75/100
60000/60000 [==============================] - 125s 2ms/sample - loss: 1.1919 - acc: 0.7616 - val_loss: 1.2124 - val_acc: 0.7597
Epoch 76/100
60000/60000 [==============================] - 126s 2ms/sample - loss: 1.1675 - acc: 0.7609 - val_loss: 1.1690 - val_acc: 0.7590
Epoch 77/100
60000/60000 [==============================] - 125s 2ms/sample - loss: 1.1661 - acc: 0.7615 - val_loss: 1.2436 - val_acc: 0.7577
Epoch 78/100
60000/60000 [==============================] - 125s 2ms/sample - loss: 1.1823 - acc: 0.7616 - val_loss: 1.2456 - val_acc: 0.7558
Epoch 79/100
60000/60000 [==============================] - 126s 2ms/sample - loss: 1.1814 - acc: 0.7615 - val_loss: 1.2689 - val_acc: 0.7597
Epoch 80/100
60000/60000 [==============================] - 126s 2ms/sample - loss: 1.2089 - acc: 0.7620 - val_loss: 1.2827 - val_acc: 0.7598
Epoch 81/100
60000/60000 [==============================] - 126s 2ms/sample - loss: 1.2035 - acc: 0.7632 - val_loss: 1.2278 - val_acc: 0.7624
Epoch 82/100
60000/60000 [==============================] - 125s 2ms/sample - loss: 1.1925 - acc: 0.7637 - val_loss: 1.1924 - val_acc: 0.7654
Epoch 83/100
60000/60000 [==============================] - 126s 2ms/sample - loss: 1.2119 - acc: 0.7651 - val_loss: 1.2328 - val_acc: 0.7641
Epoch 84/100
60000/60000 [==============================] - 125s 2ms/sample - loss: 1.2448 - acc: 0.7643 - val_loss: 1.3134 - val_acc: 0.7588
Epoch 85/100
60000/60000 [==============================] - 125s 2ms/sample - loss: 1.2183 - acc: 0.7660 - val_loss: 1.2804 - val_acc: 0.7615
Epoch 86/100
60000/60000 [==============================] - 125s 2ms/sample - loss: 1.2539 - acc: 0.7645 - val_loss: 1.3122 - val_acc: 0.7622
Epoch 87/100
60000/60000 [==============================] - 125s 2ms/sample - loss: 1.2885 - acc: 0.7658 - val_loss: 1.3654 - val_acc: 0.7636
Epoch 88/100
60000/60000 [==============================] - 125s 2ms/sample - loss: 1.2601 - acc: 0.7656 - val_loss: 1.2986 - val_acc: 0.7605
Epoch 89/100
60000/60000 [==============================] - 126s 2ms/sample - loss: 1.2603 - acc: 0.7658 - val_loss: 1.3687 - val_acc: 0.7594
Epoch 90/100
60000/60000 [==============================] - 125s 2ms/sample - loss: 1.2723 - acc: 0.7675 - val_loss: 1.3411 - val_acc: 0.7632
Epoch 91/100
60000/60000 [==============================] - 125s 2ms/sample - loss: 1.2462 - acc: 0.7689 - val_loss: 1.3235 - val_acc: 0.7639
Epoch 92/100
60000/60000 [==============================] - 125s 2ms/sample - loss: 1.2872 - acc: 0.7678 - val_loss: 1.3733 - val_acc: 0.7629
Epoch 93/100
60000/60000 [==============================] - 125s 2ms/sample - loss: 1.2753 - acc: 0.7687 - val_loss: 1.3380 - val_acc: 0.7619
Epoch 94/100
60000/60000 [==============================] - 125s 2ms/sample - loss: 1.2709 - acc: 0.7665 - val_loss: 1.2592 - val_acc: 0.7654
Epoch 95/100
60000/60000 [==============================] - 125s 2ms/sample - loss: 1.2476 - acc: 0.7677 - val_loss: 1.3387 - val_acc: 0.7611
Epoch 96/100
60000/60000 [==============================] - 125s 2ms/sample - loss: 1.2483 - acc: 0.7660 - val_loss: 1.3189 - val_acc: 0.7603
Epoch 97/100
60000/60000 [==============================] - 125s 2ms/sample - loss: 1.2213 - acc: 0.7662 - val_loss: 1.3060 - val_acc: 0.7621
Epoch 98/100
60000/60000 [==============================] - 125s 2ms/sample - loss: 1.2386 - acc: 0.7681 - val_loss: 1.3196 - val_acc: 0.7615
Epoch 99/100
60000/60000 [==============================] - 125s 2ms/sample - loss: 1.2631 - acc: 0.7681 - val_loss: 1.3501 - val_acc: 0.7627
Epoch 100/100
60000/60000 [==============================] - 126s 2ms/sample - loss: 1.2871 - acc: 0.7684 - val_loss: 1.3603 - val_acc: 0.7609
For delta=1e-5, the current epsilon is: 0.49
