Noise Multiplier: 0.05
Epoch 1/100
60000/60000 [==============================] - 124s 2ms/sample - loss: 1.1242 - acc: 0.6734 - val_loss: 1.1467 - val_acc: 0.7456
Epoch 2/100
60000/60000 [==============================] - 124s 2ms/sample - loss: 0.9895 - acc: 0.7811 - val_loss: 1.0029 - val_acc: 0.7882
Epoch 3/100
60000/60000 [==============================] - 125s 2ms/sample - loss: 0.9207 - acc: 0.8098 - val_loss: 0.9468 - val_acc: 0.8120
Epoch 4/100
60000/60000 [==============================] - 125s 2ms/sample - loss: 0.8724 - acc: 0.8248 - val_loss: 0.9086 - val_acc: 0.8280
Epoch 5/100
60000/60000 [==============================] - 125s 2ms/sample - loss: 0.8422 - acc: 0.8372 - val_loss: 0.8431 - val_acc: 0.8380
Epoch 6/100
60000/60000 [==============================] - 125s 2ms/sample - loss: 0.8091 - acc: 0.8456 - val_loss: 0.8415 - val_acc: 0.8424
Epoch 7/100
60000/60000 [==============================] - 125s 2ms/sample - loss: 0.7651 - acc: 0.8534 - val_loss: 0.8233 - val_acc: 0.8490
Epoch 8/100
60000/60000 [==============================] - 125s 2ms/sample - loss: 0.7506 - acc: 0.8582 - val_loss: 0.8252 - val_acc: 0.8499
Epoch 9/100
60000/60000 [==============================] - 125s 2ms/sample - loss: 0.7242 - acc: 0.8619 - val_loss: 0.8169 - val_acc: 0.8521
Epoch 10/100
60000/60000 [==============================] - 125s 2ms/sample - loss: 0.7117 - acc: 0.8655 - val_loss: 0.7220 - val_acc: 0.8637
Epoch 11/100
60000/60000 [==============================] - 125s 2ms/sample - loss: 0.6823 - acc: 0.8703 - val_loss: 0.7638 - val_acc: 0.8650
Epoch 12/100
60000/60000 [==============================] - 125s 2ms/sample - loss: 0.6720 - acc: 0.8736 - val_loss: 0.7355 - val_acc: 0.8654
Epoch 13/100
60000/60000 [==============================] - 125s 2ms/sample - loss: 0.6543 - acc: 0.8771 - val_loss: 0.7368 - val_acc: 0.8680
Epoch 14/100
60000/60000 [==============================] - 125s 2ms/sample - loss: 0.6462 - acc: 0.8798 - val_loss: 0.7377 - val_acc: 0.8627
Epoch 15/100
60000/60000 [==============================] - 125s 2ms/sample - loss: 0.6385 - acc: 0.8816 - val_loss: 0.6961 - val_acc: 0.8733
Epoch 16/100
60000/60000 [==============================] - 125s 2ms/sample - loss: 0.6213 - acc: 0.8845 - val_loss: 0.7396 - val_acc: 0.8653
Epoch 17/100
60000/60000 [==============================] - 124s 2ms/sample - loss: 0.6145 - acc: 0.8872 - val_loss: 0.7599 - val_acc: 0.8703
Epoch 18/100
60000/60000 [==============================] - 125s 2ms/sample - loss: 0.6094 - acc: 0.8881 - val_loss: 0.6362 - val_acc: 0.8772
Epoch 19/100
60000/60000 [==============================] - 125s 2ms/sample - loss: 0.5865 - acc: 0.8910 - val_loss: 0.6755 - val_acc: 0.8776
Epoch 20/100
60000/60000 [==============================] - 125s 2ms/sample - loss: 0.5802 - acc: 0.8935 - val_loss: 0.7334 - val_acc: 0.8736
Epoch 21/100
60000/60000 [==============================] - 125s 2ms/sample - loss: 0.5826 - acc: 0.8933 - val_loss: 0.6629 - val_acc: 0.8790
Epoch 22/100
60000/60000 [==============================] - 125s 2ms/sample - loss: 0.5669 - acc: 0.8951 - val_loss: 0.7297 - val_acc: 0.8786
Epoch 23/100
60000/60000 [==============================] - 125s 2ms/sample - loss: 0.5667 - acc: 0.8969 - val_loss: 0.6821 - val_acc: 0.8773
Epoch 24/100
60000/60000 [==============================] - 125s 2ms/sample - loss: 0.5531 - acc: 0.8985 - val_loss: 0.6520 - val_acc: 0.8869
Epoch 25/100
60000/60000 [==============================] - 125s 2ms/sample - loss: 0.5609 - acc: 0.8985 - val_loss: 0.6598 - val_acc: 0.8858
Epoch 26/100
60000/60000 [==============================] - 125s 2ms/sample - loss: 0.5417 - acc: 0.9015 - val_loss: 0.6212 - val_acc: 0.8885
Epoch 27/100
60000/60000 [==============================] - 125s 2ms/sample - loss: 0.5368 - acc: 0.9019 - val_loss: 0.6349 - val_acc: 0.8887
Epoch 28/100
60000/60000 [==============================] - 125s 2ms/sample - loss: 0.5409 - acc: 0.9022 - val_loss: 0.7205 - val_acc: 0.8800
Epoch 29/100
60000/60000 [==============================] - 125s 2ms/sample - loss: 0.5323 - acc: 0.9042 - val_loss: 0.7036 - val_acc: 0.8879
Epoch 30/100
60000/60000 [==============================] - 126s 2ms/sample - loss: 0.5312 - acc: 0.9044 - val_loss: 0.6420 - val_acc: 0.8915
Epoch 31/100
60000/60000 [==============================] - 125s 2ms/sample - loss: 0.5210 - acc: 0.9072 - val_loss: 0.6633 - val_acc: 0.8882
Epoch 32/100
60000/60000 [==============================] - 125s 2ms/sample - loss: 0.5149 - acc: 0.9080 - val_loss: 0.6868 - val_acc: 0.8852
Epoch 33/100
60000/60000 [==============================] - 125s 2ms/sample - loss: 0.5259 - acc: 0.9075 - val_loss: 0.6239 - val_acc: 0.8911
Epoch 34/100
60000/60000 [==============================] - 125s 2ms/sample - loss: 0.5163 - acc: 0.9097 - val_loss: 0.6728 - val_acc: 0.8921
Epoch 35/100
60000/60000 [==============================] - 125s 2ms/sample - loss: 0.5104 - acc: 0.9093 - val_loss: 0.6603 - val_acc: 0.8886
Epoch 36/100
60000/60000 [==============================] - 125s 2ms/sample - loss: 0.5100 - acc: 0.9109 - val_loss: 0.8037 - val_acc: 0.8838
Epoch 37/100
60000/60000 [==============================] - 125s 2ms/sample - loss: 0.5121 - acc: 0.9098 - val_loss: 0.6624 - val_acc: 0.8936
Epoch 38/100
60000/60000 [==============================] - 126s 2ms/sample - loss: 0.4986 - acc: 0.9122 - val_loss: 0.7186 - val_acc: 0.8882
Epoch 39/100
60000/60000 [==============================] - 125s 2ms/sample - loss: 0.4925 - acc: 0.9144 - val_loss: 0.6277 - val_acc: 0.8960
Epoch 40/100
60000/60000 [==============================] - 125s 2ms/sample - loss: 0.4925 - acc: 0.9145 - val_loss: 0.6632 - val_acc: 0.8956
Epoch 41/100
60000/60000 [==============================] - 125s 2ms/sample - loss: 0.4844 - acc: 0.9149 - val_loss: 0.6323 - val_acc: 0.8950
Epoch 42/100
60000/60000 [==============================] - 125s 2ms/sample - loss: 0.4925 - acc: 0.9156 - val_loss: 0.7636 - val_acc: 0.8845
Epoch 43/100
60000/60000 [==============================] - 125s 2ms/sample - loss: 0.4840 - acc: 0.9161 - val_loss: 0.6444 - val_acc: 0.8953
Epoch 44/100
60000/60000 [==============================] - 125s 2ms/sample - loss: 0.4822 - acc: 0.9166 - val_loss: 0.6491 - val_acc: 0.8962
Epoch 45/100
60000/60000 [==============================] - 125s 2ms/sample - loss: 0.4818 - acc: 0.9181 - val_loss: 0.6542 - val_acc: 0.8963
Epoch 46/100
60000/60000 [==============================] - 126s 2ms/sample - loss: 0.4663 - acc: 0.9198 - val_loss: 0.6685 - val_acc: 0.8980
Epoch 47/100
60000/60000 [==============================] - 125s 2ms/sample - loss: 0.4715 - acc: 0.9196 - val_loss: 0.6721 - val_acc: 0.8971
Epoch 48/100
60000/60000 [==============================] - 125s 2ms/sample - loss: 0.4780 - acc: 0.9191 - val_loss: 0.7009 - val_acc: 0.8891
Epoch 49/100
60000/60000 [==============================] - 125s 2ms/sample - loss: 0.4703 - acc: 0.9205 - val_loss: 0.6899 - val_acc: 0.8980
Epoch 50/100
60000/60000 [==============================] - 125s 2ms/sample - loss: 0.4632 - acc: 0.9217 - val_loss: 0.6645 - val_acc: 0.8985
Epoch 51/100
60000/60000 [==============================] - 125s 2ms/sample - loss: 0.4627 - acc: 0.9216 - val_loss: 0.6987 - val_acc: 0.8959
Epoch 52/100
60000/60000 [==============================] - 125s 2ms/sample - loss: 0.4670 - acc: 0.9220 - val_loss: 0.6740 - val_acc: 0.8971
Epoch 53/100
60000/60000 [==============================] - 125s 2ms/sample - loss: 0.4570 - acc: 0.9225 - val_loss: 0.6724 - val_acc: 0.8954
Epoch 54/100
60000/60000 [==============================] - 125s 2ms/sample - loss: 0.4553 - acc: 0.9234 - val_loss: 0.6827 - val_acc: 0.8991
Epoch 55/100
60000/60000 [==============================] - 125s 2ms/sample - loss: 0.4604 - acc: 0.9238 - val_loss: 0.6961 - val_acc: 0.8956
Epoch 56/100
60000/60000 [==============================] - 125s 2ms/sample - loss: 0.4475 - acc: 0.9255 - val_loss: 0.6528 - val_acc: 0.9003
Epoch 57/100
60000/60000 [==============================] - 125s 2ms/sample - loss: 0.4485 - acc: 0.9252 - val_loss: 0.7324 - val_acc: 0.8922
Epoch 58/100
60000/60000 [==============================] - 125s 2ms/sample - loss: 0.4440 - acc: 0.9265 - val_loss: 0.6943 - val_acc: 0.8953
Epoch 59/100
60000/60000 [==============================] - 125s 2ms/sample - loss: 0.4431 - acc: 0.9264 - val_loss: 0.6944 - val_acc: 0.8959
Epoch 60/100
60000/60000 [==============================] - 125s 2ms/sample - loss: 0.4322 - acc: 0.9282 - val_loss: 0.6748 - val_acc: 0.8980
Epoch 61/100
60000/60000 [==============================] - 125s 2ms/sample - loss: 0.4387 - acc: 0.9273 - val_loss: 0.6710 - val_acc: 0.8998
Epoch 62/100
60000/60000 [==============================] - 125s 2ms/sample - loss: 0.4314 - acc: 0.9273 - val_loss: 0.7161 - val_acc: 0.8962
Epoch 63/100
60000/60000 [==============================] - 125s 2ms/sample - loss: 0.4400 - acc: 0.9279 - val_loss: 0.7053 - val_acc: 0.8975
Epoch 64/100
60000/60000 [==============================] - 125s 2ms/sample - loss: 0.4291 - acc: 0.9298 - val_loss: 0.6948 - val_acc: 0.8997
Epoch 65/100
60000/60000 [==============================] - 125s 2ms/sample - loss: 0.4335 - acc: 0.9284 - val_loss: 0.7192 - val_acc: 0.8963
Epoch 66/100
60000/60000 [==============================] - 125s 2ms/sample - loss: 0.4237 - acc: 0.9298 - val_loss: 0.7016 - val_acc: 0.9019
Epoch 67/100
60000/60000 [==============================] - 125s 2ms/sample - loss: 0.4271 - acc: 0.9307 - val_loss: 0.7441 - val_acc: 0.8966
Epoch 68/100
60000/60000 [==============================] - 125s 2ms/sample - loss: 0.4149 - acc: 0.9311 - val_loss: 0.7148 - val_acc: 0.9017
Epoch 69/100
60000/60000 [==============================] - 125s 2ms/sample - loss: 0.4218 - acc: 0.9309 - val_loss: 0.7583 - val_acc: 0.8957
Epoch 70/100
60000/60000 [==============================] - 125s 2ms/sample - loss: 0.4165 - acc: 0.9318 - val_loss: 0.7062 - val_acc: 0.9026
Epoch 71/100
60000/60000 [==============================] - 125s 2ms/sample - loss: 0.4116 - acc: 0.9326 - val_loss: 0.7394 - val_acc: 0.8991
Epoch 72/100
60000/60000 [==============================] - 125s 2ms/sample - loss: 0.4104 - acc: 0.9331 - val_loss: 0.7400 - val_acc: 0.9006
Epoch 73/100
60000/60000 [==============================] - 125s 2ms/sample - loss: 0.4163 - acc: 0.9333 - val_loss: 0.7451 - val_acc: 0.9016
Epoch 74/100
60000/60000 [==============================] - 125s 2ms/sample - loss: 0.4114 - acc: 0.9331 - val_loss: 0.7147 - val_acc: 0.9019
Epoch 75/100
60000/60000 [==============================] - 126s 2ms/sample - loss: 0.4057 - acc: 0.9352 - val_loss: 0.7270 - val_acc: 0.9029
Epoch 76/100
60000/60000 [==============================] - 125s 2ms/sample - loss: 0.4053 - acc: 0.9347 - val_loss: 0.7808 - val_acc: 0.8981
Epoch 77/100
60000/60000 [==============================] - 125s 2ms/sample - loss: 0.4110 - acc: 0.9345 - val_loss: 0.7492 - val_acc: 0.9009
Epoch 78/100
60000/60000 [==============================] - 125s 2ms/sample - loss: 0.4071 - acc: 0.9351 - val_loss: 0.7284 - val_acc: 0.9010
Epoch 79/100
60000/60000 [==============================] - 125s 2ms/sample - loss: 0.4085 - acc: 0.9347 - val_loss: 0.7429 - val_acc: 0.8977
Epoch 80/100
60000/60000 [==============================] - 125s 2ms/sample - loss: 0.4002 - acc: 0.9364 - val_loss: 0.8097 - val_acc: 0.9016
Epoch 81/100
60000/60000 [==============================] - 125s 2ms/sample - loss: 0.3989 - acc: 0.9372 - val_loss: 0.7707 - val_acc: 0.9002
Epoch 82/100
60000/60000 [==============================] - 125s 2ms/sample - loss: 0.4012 - acc: 0.9371 - val_loss: 0.8100 - val_acc: 0.8991
Epoch 83/100
60000/60000 [==============================] - 125s 2ms/sample - loss: 0.3975 - acc: 0.9366 - val_loss: 0.7254 - val_acc: 0.9025
Epoch 84/100
60000/60000 [==============================] - 125s 2ms/sample - loss: 0.3874 - acc: 0.9384 - val_loss: 0.7564 - val_acc: 0.8999
Epoch 85/100
60000/60000 [==============================] - 125s 2ms/sample - loss: 0.3963 - acc: 0.9374 - val_loss: 0.8168 - val_acc: 0.8997
Epoch 86/100
60000/60000 [==============================] - 125s 2ms/sample - loss: 0.3932 - acc: 0.9381 - val_loss: 0.7862 - val_acc: 0.9022
Epoch 87/100
60000/60000 [==============================] - 125s 2ms/sample - loss: 0.3893 - acc: 0.9391 - val_loss: 0.7682 - val_acc: 0.9038
Epoch 88/100
60000/60000 [==============================] - 125s 2ms/sample - loss: 0.3933 - acc: 0.9383 - val_loss: 0.8358 - val_acc: 0.8950
Epoch 89/100
60000/60000 [==============================] - 125s 2ms/sample - loss: 0.3911 - acc: 0.9386 - val_loss: 0.8112 - val_acc: 0.8991
Epoch 90/100
60000/60000 [==============================] - 125s 2ms/sample - loss: 0.3854 - acc: 0.9390 - val_loss: 0.7766 - val_acc: 0.9038
Epoch 91/100
60000/60000 [==============================] - 126s 2ms/sample - loss: 0.3808 - acc: 0.9401 - val_loss: 0.8182 - val_acc: 0.8980
Epoch 92/100
60000/60000 [==============================] - 125s 2ms/sample - loss: 0.3834 - acc: 0.9405 - val_loss: 0.8345 - val_acc: 0.8964
Epoch 93/100
60000/60000 [==============================] - 125s 2ms/sample - loss: 0.3841 - acc: 0.9398 - val_loss: 0.7854 - val_acc: 0.9013
Epoch 94/100
60000/60000 [==============================] - 125s 2ms/sample - loss: 0.3827 - acc: 0.9405 - val_loss: 0.7961 - val_acc: 0.9017
Epoch 95/100
60000/60000 [==============================] - 125s 2ms/sample - loss: 0.3831 - acc: 0.9406 - val_loss: 0.8082 - val_acc: 0.9009
Epoch 96/100
60000/60000 [==============================] - 125s 2ms/sample - loss: 0.3721 - acc: 0.9424 - val_loss: 0.7994 - val_acc: 0.9034
Epoch 97/100
60000/60000 [==============================] - 125s 2ms/sample - loss: 0.3721 - acc: 0.9423 - val_loss: 0.7778 - val_acc: 0.9033
Epoch 98/100
60000/60000 [==============================] - 125s 2ms/sample - loss: 0.3741 - acc: 0.9423 - val_loss: 0.8355 - val_acc: 0.9023
Epoch 99/100
60000/60000 [==============================] - 125s 2ms/sample - loss: 0.3787 - acc: 0.9423 - val_loss: 0.8350 - val_acc: 0.9014
Epoch 100/100
60000/60000 [==============================] - 126s 2ms/sample - loss: 0.3760 - acc: 0.9421 - val_loss: 0.8342 - val_acc: 0.8981
For delta=1e-5, the current epsilon is: 2299981.94
