Epoch 1/100
60000/60000 [==============================] - 2s 39us/sample - loss: 0.8083 - acc: 0.7244 - val_loss: 0.5940 - val_acc: 0.7837
Epoch 2/100
60000/60000 [==============================] - 2s 33us/sample - loss: 0.5019 - acc: 0.8231 - val_loss: 0.4915 - val_acc: 0.8314
Epoch 3/100
60000/60000 [==============================] - 2s 32us/sample - loss: 0.4364 - acc: 0.8445 - val_loss: 0.4346 - val_acc: 0.8484
Epoch 4/100
60000/60000 [==============================] - 2s 33us/sample - loss: 0.4018 - acc: 0.8578 - val_loss: 0.4186 - val_acc: 0.8548
Epoch 5/100
60000/60000 [==============================] - 2s 33us/sample - loss: 0.3695 - acc: 0.8684 - val_loss: 0.3941 - val_acc: 0.8605
Epoch 6/100
60000/60000 [==============================] - 2s 34us/sample - loss: 0.3535 - acc: 0.8744 - val_loss: 0.3671 - val_acc: 0.8685
Epoch 7/100
60000/60000 [==============================] - 2s 33us/sample - loss: 0.3349 - acc: 0.8808 - val_loss: 0.3589 - val_acc: 0.8702
Epoch 8/100
60000/60000 [==============================] - 2s 33us/sample - loss: 0.3238 - acc: 0.8842 - val_loss: 0.3672 - val_acc: 0.8722
Epoch 9/100
60000/60000 [==============================] - 2s 33us/sample - loss: 0.3108 - acc: 0.8883 - val_loss: 0.3431 - val_acc: 0.8774
Epoch 10/100
60000/60000 [==============================] - 2s 32us/sample - loss: 0.3025 - acc: 0.8918 - val_loss: 0.3340 - val_acc: 0.8789
Epoch 11/100
60000/60000 [==============================] - 2s 33us/sample - loss: 0.2929 - acc: 0.8940 - val_loss: 0.3207 - val_acc: 0.8848
Epoch 12/100
60000/60000 [==============================] - 2s 33us/sample - loss: 0.2838 - acc: 0.8975 - val_loss: 0.3320 - val_acc: 0.8836
Epoch 13/100
60000/60000 [==============================] - 2s 33us/sample - loss: 0.2804 - acc: 0.8989 - val_loss: 0.3247 - val_acc: 0.8807
Epoch 14/100
60000/60000 [==============================] - 2s 34us/sample - loss: 0.2750 - acc: 0.9005 - val_loss: 0.3185 - val_acc: 0.8875
Epoch 15/100
60000/60000 [==============================] - 2s 33us/sample - loss: 0.2676 - acc: 0.9032 - val_loss: 0.3199 - val_acc: 0.8860
Epoch 16/100
60000/60000 [==============================] - 2s 34us/sample - loss: 0.2620 - acc: 0.9048 - val_loss: 0.3028 - val_acc: 0.8883
Epoch 17/100
60000/60000 [==============================] - 2s 33us/sample - loss: 0.2579 - acc: 0.9057 - val_loss: 0.3051 - val_acc: 0.8910
Epoch 18/100
60000/60000 [==============================] - 2s 34us/sample - loss: 0.2511 - acc: 0.9080 - val_loss: 0.3042 - val_acc: 0.8900
Epoch 19/100
60000/60000 [==============================] - 2s 34us/sample - loss: 0.2476 - acc: 0.9110 - val_loss: 0.2952 - val_acc: 0.8965
Epoch 20/100
60000/60000 [==============================] - 2s 34us/sample - loss: 0.2410 - acc: 0.9132 - val_loss: 0.3291 - val_acc: 0.8870
Epoch 21/100
60000/60000 [==============================] - 2s 34us/sample - loss: 0.2385 - acc: 0.9130 - val_loss: 0.2958 - val_acc: 0.8947
Epoch 22/100
60000/60000 [==============================] - 2s 33us/sample - loss: 0.2331 - acc: 0.9145 - val_loss: 0.2947 - val_acc: 0.8921
Epoch 23/100
60000/60000 [==============================] - 2s 33us/sample - loss: 0.2288 - acc: 0.9157 - val_loss: 0.3021 - val_acc: 0.8946
Epoch 24/100
60000/60000 [==============================] - 2s 34us/sample - loss: 0.2273 - acc: 0.9167 - val_loss: 0.2938 - val_acc: 0.8964
Epoch 25/100
60000/60000 [==============================] - 2s 34us/sample - loss: 0.2237 - acc: 0.9187 - val_loss: 0.2947 - val_acc: 0.8978
Epoch 26/100
60000/60000 [==============================] - 2s 33us/sample - loss: 0.2181 - acc: 0.9213 - val_loss: 0.3023 - val_acc: 0.8910
Epoch 27/100
60000/60000 [==============================] - 2s 34us/sample - loss: 0.2158 - acc: 0.9202 - val_loss: 0.3026 - val_acc: 0.8940
Epoch 28/100
60000/60000 [==============================] - 2s 34us/sample - loss: 0.2162 - acc: 0.9199 - val_loss: 0.3126 - val_acc: 0.8930
Epoch 29/100
60000/60000 [==============================] - 2s 33us/sample - loss: 0.2057 - acc: 0.9250 - val_loss: 0.2975 - val_acc: 0.8957
Epoch 30/100
60000/60000 [==============================] - 2s 34us/sample - loss: 0.2040 - acc: 0.9245 - val_loss: 0.2868 - val_acc: 0.9021
Epoch 31/100
60000/60000 [==============================] - 2s 34us/sample - loss: 0.1973 - acc: 0.9269 - val_loss: 0.3029 - val_acc: 0.8968
Epoch 32/100
60000/60000 [==============================] - 2s 33us/sample - loss: 0.1965 - acc: 0.9273 - val_loss: 0.2953 - val_acc: 0.9000
Epoch 33/100
60000/60000 [==============================] - 2s 33us/sample - loss: 0.1920 - acc: 0.9289 - val_loss: 0.3255 - val_acc: 0.8890
Epoch 34/100
60000/60000 [==============================] - 2s 34us/sample - loss: 0.1932 - acc: 0.9288 - val_loss: 0.2983 - val_acc: 0.8966
Epoch 35/100
60000/60000 [==============================] - 2s 34us/sample - loss: 0.1868 - acc: 0.9313 - val_loss: 0.3047 - val_acc: 0.8985
Epoch 36/100
60000/60000 [==============================] - 2s 34us/sample - loss: 0.1866 - acc: 0.9311 - val_loss: 0.2966 - val_acc: 0.9029
Epoch 37/100
60000/60000 [==============================] - 2s 33us/sample - loss: 0.1843 - acc: 0.9325 - val_loss: 0.2951 - val_acc: 0.9010
Epoch 38/100
60000/60000 [==============================] - 2s 33us/sample - loss: 0.1823 - acc: 0.9322 - val_loss: 0.3120 - val_acc: 0.8969
Epoch 39/100
60000/60000 [==============================] - 2s 34us/sample - loss: 0.1793 - acc: 0.9333 - val_loss: 0.2906 - val_acc: 0.8990
Epoch 40/100
60000/60000 [==============================] - 2s 34us/sample - loss: 0.1751 - acc: 0.9351 - val_loss: 0.3011 - val_acc: 0.8955
Epoch 41/100
60000/60000 [==============================] - 2s 34us/sample - loss: 0.1728 - acc: 0.9360 - val_loss: 0.2949 - val_acc: 0.9035
Epoch 42/100
60000/60000 [==============================] - 2s 34us/sample - loss: 0.1712 - acc: 0.9375 - val_loss: 0.2954 - val_acc: 0.9009
Epoch 43/100
60000/60000 [==============================] - 2s 34us/sample - loss: 0.1702 - acc: 0.9367 - val_loss: 0.3121 - val_acc: 0.9020
Epoch 44/100
60000/60000 [==============================] - 2s 34us/sample - loss: 0.1649 - acc: 0.9394 - val_loss: 0.3023 - val_acc: 0.9012
Epoch 45/100
60000/60000 [==============================] - 2s 34us/sample - loss: 0.1626 - acc: 0.9400 - val_loss: 0.2985 - val_acc: 0.9021
Epoch 46/100
60000/60000 [==============================] - 2s 34us/sample - loss: 0.1612 - acc: 0.9403 - val_loss: 0.3175 - val_acc: 0.8930
Epoch 47/100
60000/60000 [==============================] - 2s 34us/sample - loss: 0.1566 - acc: 0.9429 - val_loss: 0.3084 - val_acc: 0.9021
Epoch 48/100
60000/60000 [==============================] - 2s 33us/sample - loss: 0.1616 - acc: 0.9408 - val_loss: 0.3074 - val_acc: 0.8987
Epoch 49/100
60000/60000 [==============================] - 2s 34us/sample - loss: 0.1545 - acc: 0.9438 - val_loss: 0.3259 - val_acc: 0.8987
Epoch 50/100
60000/60000 [==============================] - 2s 34us/sample - loss: 0.1556 - acc: 0.9419 - val_loss: 0.3121 - val_acc: 0.8978
Epoch 51/100
60000/60000 [==============================] - 2s 33us/sample - loss: 0.1524 - acc: 0.9428 - val_loss: 0.3099 - val_acc: 0.8992
Epoch 52/100
60000/60000 [==============================] - 2s 33us/sample - loss: 0.1487 - acc: 0.9456 - val_loss: 0.3171 - val_acc: 0.9004
Epoch 53/100
60000/60000 [==============================] - 2s 34us/sample - loss: 0.1449 - acc: 0.9469 - val_loss: 0.3280 - val_acc: 0.9004
Epoch 54/100
60000/60000 [==============================] - 2s 34us/sample - loss: 0.1488 - acc: 0.9454 - val_loss: 0.3188 - val_acc: 0.8998
Epoch 55/100
60000/60000 [==============================] - 2s 34us/sample - loss: 0.1441 - acc: 0.9466 - val_loss: 0.3153 - val_acc: 0.9010
Epoch 56/100
60000/60000 [==============================] - 2s 34us/sample - loss: 0.1410 - acc: 0.9480 - val_loss: 0.3254 - val_acc: 0.9003
Epoch 57/100
60000/60000 [==============================] - 2s 34us/sample - loss: 0.1425 - acc: 0.9474 - val_loss: 0.3298 - val_acc: 0.8978
Epoch 58/100
60000/60000 [==============================] - 2s 34us/sample - loss: 0.1364 - acc: 0.9498 - val_loss: 0.3298 - val_acc: 0.9016
Epoch 59/100
60000/60000 [==============================] - 2s 34us/sample - loss: 0.1370 - acc: 0.9494 - val_loss: 0.3241 - val_acc: 0.9024
Epoch 60/100
60000/60000 [==============================] - 2s 34us/sample - loss: 0.1355 - acc: 0.9500 - val_loss: 0.3348 - val_acc: 0.9021
Epoch 61/100
60000/60000 [==============================] - 2s 34us/sample - loss: 0.1326 - acc: 0.9512 - val_loss: 0.3269 - val_acc: 0.9014
Epoch 62/100
60000/60000 [==============================] - 2s 34us/sample - loss: 0.1311 - acc: 0.9520 - val_loss: 0.3294 - val_acc: 0.8999
Epoch 63/100
60000/60000 [==============================] - 2s 34us/sample - loss: 0.1299 - acc: 0.9523 - val_loss: 0.3358 - val_acc: 0.9023
Epoch 64/100
60000/60000 [==============================] - 2s 34us/sample - loss: 0.1281 - acc: 0.9529 - val_loss: 0.3432 - val_acc: 0.8994
Epoch 65/100
60000/60000 [==============================] - 2s 35us/sample - loss: 0.1253 - acc: 0.9536 - val_loss: 0.3460 - val_acc: 0.8914
Epoch 66/100
60000/60000 [==============================] - 2s 34us/sample - loss: 0.1287 - acc: 0.9524 - val_loss: 0.3463 - val_acc: 0.8989
Epoch 67/100
60000/60000 [==============================] - 2s 34us/sample - loss: 0.1235 - acc: 0.9542 - val_loss: 0.3353 - val_acc: 0.9002
Epoch 68/100
60000/60000 [==============================] - 2s 34us/sample - loss: 0.1227 - acc: 0.9549 - val_loss: 0.3534 - val_acc: 0.8985
Epoch 69/100
60000/60000 [==============================] - 2s 34us/sample - loss: 0.1201 - acc: 0.9556 - val_loss: 0.3559 - val_acc: 0.9000
Epoch 70/100
60000/60000 [==============================] - 2s 35us/sample - loss: 0.1189 - acc: 0.9560 - val_loss: 0.3551 - val_acc: 0.8981
Epoch 71/100
60000/60000 [==============================] - 2s 35us/sample - loss: 0.1175 - acc: 0.9569 - val_loss: 0.3675 - val_acc: 0.8964
Epoch 72/100
60000/60000 [==============================] - 2s 34us/sample - loss: 0.1179 - acc: 0.9563 - val_loss: 0.3814 - val_acc: 0.8984
Epoch 73/100
60000/60000 [==============================] - 2s 33us/sample - loss: 0.1152 - acc: 0.9574 - val_loss: 0.3876 - val_acc: 0.8966
Epoch 74/100
60000/60000 [==============================] - 2s 34us/sample - loss: 0.1159 - acc: 0.9572 - val_loss: 0.3752 - val_acc: 0.8958
Epoch 75/100
60000/60000 [==============================] - 2s 34us/sample - loss: 0.1125 - acc: 0.9591 - val_loss: 0.3553 - val_acc: 0.9010
Epoch 76/100
60000/60000 [==============================] - 2s 33us/sample - loss: 0.1103 - acc: 0.9595 - val_loss: 0.3651 - val_acc: 0.9006
Epoch 77/100
60000/60000 [==============================] - 2s 34us/sample - loss: 0.1101 - acc: 0.9590 - val_loss: 0.3570 - val_acc: 0.8997
Epoch 78/100
60000/60000 [==============================] - 2s 34us/sample - loss: 0.1077 - acc: 0.9603 - val_loss: 0.3673 - val_acc: 0.9010
Epoch 79/100
60000/60000 [==============================] - 2s 34us/sample - loss: 0.1078 - acc: 0.9605 - val_loss: 0.3756 - val_acc: 0.8992
Epoch 80/100
60000/60000 [==============================] - 2s 34us/sample - loss: 0.1067 - acc: 0.9605 - val_loss: 0.3935 - val_acc: 0.9011
Epoch 81/100
60000/60000 [==============================] - 2s 34us/sample - loss: 0.1042 - acc: 0.9613 - val_loss: 0.3908 - val_acc: 0.9008
Epoch 82/100
60000/60000 [==============================] - 2s 34us/sample - loss: 0.1039 - acc: 0.9613 - val_loss: 0.3840 - val_acc: 0.8975
Epoch 83/100
60000/60000 [==============================] - 2s 34us/sample - loss: 0.1037 - acc: 0.9618 - val_loss: 0.4016 - val_acc: 0.8991
Epoch 84/100
60000/60000 [==============================] - 2s 34us/sample - loss: 0.0981 - acc: 0.9643 - val_loss: 0.3833 - val_acc: 0.8970
Epoch 85/100
60000/60000 [==============================] - 2s 34us/sample - loss: 0.0992 - acc: 0.9637 - val_loss: 0.4074 - val_acc: 0.8979
Epoch 86/100
60000/60000 [==============================] - 2s 34us/sample - loss: 0.0988 - acc: 0.9634 - val_loss: 0.4044 - val_acc: 0.8975
Epoch 87/100
60000/60000 [==============================] - 2s 33us/sample - loss: 0.1003 - acc: 0.9623 - val_loss: 0.4228 - val_acc: 0.8986
Epoch 88/100
60000/60000 [==============================] - 2s 33us/sample - loss: 0.0993 - acc: 0.9638 - val_loss: 0.4130 - val_acc: 0.8964
Epoch 89/100
60000/60000 [==============================] - 2s 35us/sample - loss: 0.0935 - acc: 0.9656 - val_loss: 0.4100 - val_acc: 0.8992
Epoch 90/100
60000/60000 [==============================] - 2s 35us/sample - loss: 0.0954 - acc: 0.9641 - val_loss: 0.4157 - val_acc: 0.8999
Epoch 91/100
60000/60000 [==============================] - 2s 36us/sample - loss: 0.0923 - acc: 0.9660 - val_loss: 0.4263 - val_acc: 0.9002
Epoch 92/100
60000/60000 [==============================] - 2s 36us/sample - loss: 0.0922 - acc: 0.9655 - val_loss: 0.4220 - val_acc: 0.9009
Epoch 93/100
60000/60000 [==============================] - 2s 36us/sample - loss: 0.0911 - acc: 0.9659 - val_loss: 0.4384 - val_acc: 0.8945
Epoch 94/100
60000/60000 [==============================] - 2s 35us/sample - loss: 0.0942 - acc: 0.9650 - val_loss: 0.4462 - val_acc: 0.8924
Epoch 95/100
60000/60000 [==============================] - 2s 34us/sample - loss: 0.0884 - acc: 0.9676 - val_loss: 0.4337 - val_acc: 0.9015
Epoch 96/100
60000/60000 [==============================] - 2s 34us/sample - loss: 0.0875 - acc: 0.9683 - val_loss: 0.4301 - val_acc: 0.8984
Epoch 97/100
60000/60000 [==============================] - 2s 33us/sample - loss: 0.0861 - acc: 0.9680 - val_loss: 0.4614 - val_acc: 0.8996
Epoch 98/100
60000/60000 [==============================] - 2s 34us/sample - loss: 0.0854 - acc: 0.9692 - val_loss: 0.4416 - val_acc: 0.8963
Epoch 99/100
60000/60000 [==============================] - 2s 34us/sample - loss: 0.0865 - acc: 0.9673 - val_loss: 0.4414 - val_acc: 0.9002
Epoch 100/100
60000/60000 [==============================] - 2s 34us/sample - loss: 0.0816 - acc: 0.9706 - val_loss: 0.4422 - val_acc: 0.8992
Trained with vanilla non-private SGD optimizer
