Train Epoch: 1 [0/50000 (0%)]   Loss: 2.300272
Train Epoch: 1 [25600/50000 (51%)]  Loss: 1.985002
================================================================
Training: Average loss: 1.8177, Accuracy: 15033/50000 (30.07%)
Test: Average loss: 1.8234, Accuracy: 3023/10000 (30.23%)
================================================================
Train Epoch: 2 [0/50000 (0%)]   Loss: 1.933247
Train Epoch: 2 [25600/50000 (51%)]  Loss: 1.711593
================================================================
Training: Average loss: 1.7131, Accuracy: 17817/50000 (35.63%)
Test: Average loss: 1.6278, Accuracy: 3867/10000 (38.67%)
================================================================
Train Epoch: 3 [0/50000 (0%)]   Loss: 1.744135
Train Epoch: 3 [25600/50000 (51%)]  Loss: 1.708393
================================================================
Training: Average loss: 1.4685, Accuracy: 22427/50000 (44.85%)
Test: Average loss: 1.4297, Accuracy: 4622/10000 (46.22%)
================================================================
Train Epoch: 4 [0/50000 (0%)]   Loss: 1.576618
Train Epoch: 4 [25600/50000 (51%)]  Loss: 1.496145
================================================================
Training: Average loss: 1.3546, Accuracy: 25415/50000 (50.83%)
Test: Average loss: 1.3504, Accuracy: 5102/10000 (51.02%)
================================================================
Train Epoch: 5 [0/50000 (0%)]   Loss: 1.427842
Train Epoch: 5 [25600/50000 (51%)]  Loss: 1.367357
================================================================
Training: Average loss: 1.1644, Accuracy: 28855/50000 (57.71%)
Test: Average loss: 1.1542, Accuracy: 5815/10000 (58.15%)
Model Saved!!
================================================================
Train Epoch: 6 [0/50000 (0%)]   Loss: 1.256774
Train Epoch: 6 [25600/50000 (51%)]  Loss: 1.322421
================================================================
Training: Average loss: 1.1041, Accuracy: 30132/50000 (60.26%)
Test: Average loss: 1.0807, Accuracy: 6170/10000 (61.70%)
================================================================
Train Epoch: 7 [0/50000 (0%)]   Loss: 1.205306
Train Epoch: 7 [25600/50000 (51%)]  Loss: 1.059841
================================================================
Training: Average loss: 1.0112, Accuracy: 32177/50000 (64.35%)
Test: Average loss: 0.9950, Accuracy: 6483/10000 (64.83%)
================================================================
Train Epoch: 8 [0/50000 (0%)]   Loss: 1.140884
Train Epoch: 8 [25600/50000 (51%)]  Loss: 1.079935
================================================================
Training: Average loss: 1.0016, Accuracy: 32510/50000 (65.02%)
Test: Average loss: 0.9808, Accuracy: 6556/10000 (65.56%)
================================================================
Train Epoch: 9 [0/50000 (0%)]   Loss: 1.138801
Train Epoch: 9 [25600/50000 (51%)]  Loss: 1.124090
================================================================
Training: Average loss: 0.9070, Accuracy: 34074/50000 (68.15%)
Test: Average loss: 0.8994, Accuracy: 6889/10000 (68.89%)
================================================================
Train Epoch: 10 [0/50000 (0%)]  Loss: 1.147865
Train Epoch: 10 [25600/50000 (51%)] Loss: 0.938941
================================================================
Training: Average loss: 0.8858, Accuracy: 34608/50000 (69.22%)
Test: Average loss: 0.8999, Accuracy: 6841/10000 (68.41%)
Model Saved!!
================================================================
Train Epoch: 11 [0/50000 (0%)]  Loss: 1.074417
Train Epoch: 11 [25600/50000 (51%)] Loss: 0.920641
================================================================
Training: Average loss: 0.8258, Accuracy: 35658/50000 (71.32%)
Test: Average loss: 0.8282, Accuracy: 7095/10000 (70.95%)
================================================================
Train Epoch: 12 [0/50000 (0%)]  Loss: 0.978431
Train Epoch: 12 [25600/50000 (51%)] Loss: 1.008642
================================================================
Training: Average loss: 0.8243, Accuracy: 36097/50000 (72.19%)
Test: Average loss: 0.8312, Accuracy: 7175/10000 (71.75%)
================================================================
Train Epoch: 13 [0/50000 (0%)]  Loss: 1.011628
Train Epoch: 13 [25600/50000 (51%)] Loss: 0.851145
================================================================
Training: Average loss: 0.7817, Accuracy: 36554/50000 (73.11%)
Test: Average loss: 0.8059, Accuracy: 7211/10000 (72.11%)
================================================================
Train Epoch: 14 [0/50000 (0%)]  Loss: 0.919571
Train Epoch: 14 [25600/50000 (51%)] Loss: 0.803779
================================================================
Training: Average loss: 0.7325, Accuracy: 37674/50000 (75.35%)
Test: Average loss: 0.7440, Accuracy: 7508/10000 (75.08%)
================================================================
Train Epoch: 15 [0/50000 (0%)]  Loss: 0.903707
Train Epoch: 15 [25600/50000 (51%)] Loss: 0.908809
================================================================
Training: Average loss: 0.7092, Accuracy: 38327/50000 (76.65%)
Test: Average loss: 0.7345, Accuracy: 7456/10000 (74.56%)
Model Saved!!
================================================================
Train Epoch: 16 [0/50000 (0%)]  Loss: 0.887656
Train Epoch: 16 [25600/50000 (51%)] Loss: 0.893971
================================================================
Training: Average loss: 0.6975, Accuracy: 38143/50000 (76.29%)
Test: Average loss: 0.7249, Accuracy: 7493/10000 (74.93%)
================================================================
Train Epoch: 17 [0/50000 (0%)]  Loss: 0.837647
Train Epoch: 17 [25600/50000 (51%)] Loss: 0.855944
================================================================
Training: Average loss: 0.6580, Accuracy: 38817/50000 (77.63%)
Test: Average loss: 0.6987, Accuracy: 7592/10000 (75.92%)
================================================================
Train Epoch: 18 [0/50000 (0%)]  Loss: 0.845546
Train Epoch: 18 [25600/50000 (51%)] Loss: 0.842717
================================================================
Training: Average loss: 0.6412, Accuracy: 38903/50000 (77.81%)
Test: Average loss: 0.6816, Accuracy: 7648/10000 (76.48%)
================================================================
Train Epoch: 19 [0/50000 (0%)]  Loss: 0.773551
Train Epoch: 19 [25600/50000 (51%)] Loss: 0.721439
================================================================
Training: Average loss: 0.6385, Accuracy: 39342/50000 (78.68%)
Test: Average loss: 0.6789, Accuracy: 7732/10000 (77.32%)
================================================================
Train Epoch: 20 [0/50000 (0%)]  Loss: 0.836254
Train Epoch: 20 [25600/50000 (51%)] Loss: 0.880146
================================================================
Training: Average loss: 0.5947, Accuracy: 40007/50000 (80.01%)
Test: Average loss: 0.6401, Accuracy: 7822/10000 (78.22%)
Model Saved!!
================================================================
Train Epoch: 21 [0/50000 (0%)]  Loss: 0.678271
Train Epoch: 21 [25600/50000 (51%)] Loss: 0.815075
================================================================
Training: Average loss: 0.5964, Accuracy: 39981/50000 (79.96%)
Test: Average loss: 0.6447, Accuracy: 7833/10000 (78.33%)
================================================================
Train Epoch: 22 [0/50000 (0%)]  Loss: 0.803163
Train Epoch: 22 [25600/50000 (51%)] Loss: 0.679211
================================================================
Training: Average loss: 0.6030, Accuracy: 39779/50000 (79.56%)
Test: Average loss: 0.6384, Accuracy: 7834/10000 (78.34%)
================================================================
Train Epoch: 23 [0/50000 (0%)]  Loss: 0.740621
Train Epoch: 23 [25600/50000 (51%)] Loss: 0.787968
================================================================
Training: Average loss: 0.5760, Accuracy: 40356/50000 (80.71%)
Test: Average loss: 0.6251, Accuracy: 7902/10000 (79.02%)
================================================================
Train Epoch: 24 [0/50000 (0%)]  Loss: 0.738785
Train Epoch: 24 [25600/50000 (51%)] Loss: 0.695004
================================================================
Training: Average loss: 0.5999, Accuracy: 39895/50000 (79.79%)
Test: Average loss: 0.6517, Accuracy: 7794/10000 (77.94%)
================================================================
Train Epoch: 25 [0/50000 (0%)]  Loss: 0.746362
Train Epoch: 25 [25600/50000 (51%)] Loss: 0.748096
================================================================
Training: Average loss: 0.5480, Accuracy: 40520/50000 (81.04%)
Test: Average loss: 0.6281, Accuracy: 7865/10000 (78.65%)
Model Saved!!
================================================================
Train Epoch: 26 [0/50000 (0%)]  Loss: 0.749965
Train Epoch: 26 [25600/50000 (51%)] Loss: 0.702729
================================================================
Training: Average loss: 0.5632, Accuracy: 40252/50000 (80.50%)
Test: Average loss: 0.6220, Accuracy: 7901/10000 (79.01%)
================================================================
Train Epoch: 27 [0/50000 (0%)]  Loss: 0.764151
Train Epoch: 27 [25600/50000 (51%)] Loss: 0.693731
================================================================
Training: Average loss: 0.5243, Accuracy: 41242/50000 (82.48%)
Test: Average loss: 0.6015, Accuracy: 7956/10000 (79.56%)
================================================================
Train Epoch: 28 [0/50000 (0%)]  Loss: 0.646518
Train Epoch: 28 [25600/50000 (51%)] Loss: 0.785983
================================================================
Training: Average loss: 0.5332, Accuracy: 41024/50000 (82.05%)
Test: Average loss: 0.6063, Accuracy: 7911/10000 (79.11%)
================================================================
Train Epoch: 29 [0/50000 (0%)]  Loss: 0.725667
Train Epoch: 29 [25600/50000 (51%)] Loss: 0.678577
================================================================
Training: Average loss: 0.5306, Accuracy: 40970/50000 (81.94%)
Test: Average loss: 0.6048, Accuracy: 7926/10000 (79.26%)
================================================================
Train Epoch: 30 [0/50000 (0%)]  Loss: 0.659902
Train Epoch: 30 [25600/50000 (51%)] Loss: 0.634334
================================================================
Training: Average loss: 0.5454, Accuracy: 40798/50000 (81.60%)
Test: Average loss: 0.6234, Accuracy: 7866/10000 (78.66%)
Model Saved!!
================================================================
Train Epoch: 31 [0/50000 (0%)]  Loss: 0.680529
Train Epoch: 31 [25600/50000 (51%)] Loss: 0.622005
================================================================
Training: Average loss: 0.5103, Accuracy: 41475/50000 (82.95%)
Test: Average loss: 0.5914, Accuracy: 7987/10000 (79.87%)
================================================================
Train Epoch: 32 [0/50000 (0%)]  Loss: 0.619621
Train Epoch: 32 [25600/50000 (51%)] Loss: 0.729829
================================================================
Training: Average loss: 0.5005, Accuracy: 41596/50000 (83.19%)
Test: Average loss: 0.5838, Accuracy: 8043/10000 (80.43%)
================================================================
Train Epoch: 33 [0/50000 (0%)]  Loss: 0.645779
Train Epoch: 33 [25600/50000 (51%)] Loss: 0.648690
================================================================
Training: Average loss: 0.4929, Accuracy: 41881/50000 (83.76%)
Test: Average loss: 0.5853, Accuracy: 8026/10000 (80.26%)
================================================================
Train Epoch: 34 [0/50000 (0%)]  Loss: 0.527883
Train Epoch: 34 [25600/50000 (51%)] Loss: 0.703883
================================================================
Training: Average loss: 0.4997, Accuracy: 41462/50000 (82.92%)
Test: Average loss: 0.5950, Accuracy: 7998/10000 (79.98%)
================================================================
Train Epoch: 35 [0/50000 (0%)]  Loss: 0.614071
Train Epoch: 35 [25600/50000 (51%)] Loss: 0.618186
================================================================
Training: Average loss: 0.5071, Accuracy: 41379/50000 (82.76%)
Test: Average loss: 0.6006, Accuracy: 7948/10000 (79.48%)
Model Saved!!
================================================================
Train Epoch: 36 [0/50000 (0%)]  Loss: 0.700040
Train Epoch: 36 [25600/50000 (51%)] Loss: 0.624611
================================================================
Training: Average loss: 0.4683, Accuracy: 42027/50000 (84.05%)
Test: Average loss: 0.5679, Accuracy: 8072/10000 (80.72%)
================================================================
Train Epoch: 37 [0/50000 (0%)]  Loss: 0.568924
Train Epoch: 37 [25600/50000 (51%)] Loss: 0.672010
================================================================
Training: Average loss: 0.4857, Accuracy: 41728/50000 (83.46%)
Test: Average loss: 0.5810, Accuracy: 8020/10000 (80.20%)
================================================================
Train Epoch: 38 [0/50000 (0%)]  Loss: 0.682093
Train Epoch: 38 [25600/50000 (51%)] Loss: 0.589164
================================================================
Training: Average loss: 0.4575, Accuracy: 42338/50000 (84.68%)
Test: Average loss: 0.5687, Accuracy: 8061/10000 (80.61%)
================================================================
Train Epoch: 39 [0/50000 (0%)]  Loss: 0.574231
Train Epoch: 39 [25600/50000 (51%)] Loss: 0.637656
================================================================
Training: Average loss: 0.4692, Accuracy: 42140/50000 (84.28%)
Test: Average loss: 0.5748, Accuracy: 8023/10000 (80.23%)
================================================================
Train Epoch: 40 [0/50000 (0%)]  Loss: 0.587271
Train Epoch: 40 [25600/50000 (51%)] Loss: 0.641124
================================================================
Training: Average loss: 0.4506, Accuracy: 42519/50000 (85.04%)
Test: Average loss: 0.5587, Accuracy: 8126/10000 (81.26%)
Model Saved!!
================================================================
Train Epoch: 41 [0/50000 (0%)]  Loss: 0.578634
Train Epoch: 41 [25600/50000 (51%)] Loss: 0.664357
================================================================
Training: Average loss: 0.4823, Accuracy: 41463/50000 (82.93%)
Test: Average loss: 0.5994, Accuracy: 7939/10000 (79.39%)
================================================================
Train Epoch: 42 [0/50000 (0%)]  Loss: 0.724819
Train Epoch: 42 [25600/50000 (51%)] Loss: 0.598313
================================================================
Training: Average loss: 0.4403, Accuracy: 42577/50000 (85.15%)
Test: Average loss: 0.5520, Accuracy: 8134/10000 (81.34%)
================================================================
Train Epoch: 43 [0/50000 (0%)]  Loss: 0.624860
Train Epoch: 43 [25600/50000 (51%)] Loss: 0.620157
================================================================
Training: Average loss: 0.4382, Accuracy: 42673/50000 (85.35%)
Test: Average loss: 0.5611, Accuracy: 8092/10000 (80.92%)
================================================================
Train Epoch: 44 [0/50000 (0%)]  Loss: 0.606535
Train Epoch: 44 [25600/50000 (51%)] Loss: 0.664257
================================================================
Training: Average loss: 0.4257, Accuracy: 42717/50000 (85.43%)
Test: Average loss: 0.5548, Accuracy: 8135/10000 (81.35%)
================================================================
Train Epoch: 45 [0/50000 (0%)]  Loss: 0.526250
Train Epoch: 45 [25600/50000 (51%)] Loss: 0.589479
================================================================
Training: Average loss: 0.4272, Accuracy: 42740/50000 (85.48%)
Test: Average loss: 0.5554, Accuracy: 8112/10000 (81.12%)
Model Saved!!
================================================================
Train Epoch: 46 [0/50000 (0%)]  Loss: 0.624957
Train Epoch: 46 [25600/50000 (51%)] Loss: 0.568062
================================================================
Training: Average loss: 0.4303, Accuracy: 42557/50000 (85.11%)
Test: Average loss: 0.5767, Accuracy: 8081/10000 (80.81%)
================================================================
Train Epoch: 47 [0/50000 (0%)]  Loss: 0.452997
Train Epoch: 47 [25600/50000 (51%)] Loss: 0.578875
================================================================
Training: Average loss: 0.4085, Accuracy: 42983/50000 (85.97%)
Test: Average loss: 0.5512, Accuracy: 8142/10000 (81.42%)
================================================================
Train Epoch: 48 [0/50000 (0%)]  Loss: 0.620103
Train Epoch: 48 [25600/50000 (51%)] Loss: 0.561379
================================================================
Training: Average loss: 0.4173, Accuracy: 42875/50000 (85.75%)
Test: Average loss: 0.5584, Accuracy: 8137/10000 (81.37%)
================================================================
Train Epoch: 49 [0/50000 (0%)]  Loss: 0.535188
Train Epoch: 49 [25600/50000 (51%)] Loss: 0.592447
================================================================
Training: Average loss: 0.4242, Accuracy: 42782/50000 (85.56%)
Test: Average loss: 0.5731, Accuracy: 8051/10000 (80.51%)
================================================================
Train Epoch: 50 [0/50000 (0%)]  Loss: 0.520568
Train Epoch: 50 [25600/50000 (51%)] Loss: 0.539991
================================================================
Training: Average loss: 0.4065, Accuracy: 43051/50000 (86.10%)
Test: Average loss: 0.5536, Accuracy: 8154/10000 (81.54%)
Model Saved!!
Train Epoch: 1 [0/50000 (0%)]   Loss: 0.558801
Train Epoch: 1 [25600/50000 (51%)]  Loss: 0.544330
================================================================
Training: Average loss: 0.4031, Accuracy: 43048/50000 (86.10%)
Test: Average loss: 0.5577, Accuracy: 8123/10000 (81.23%)
================================================================
Train Epoch: 2 [0/50000 (0%)]   Loss: 0.610567
Train Epoch: 2 [25600/50000 (51%)]  Loss: 0.461545
================================================================
Training: Average loss: 0.4043, Accuracy: 43041/50000 (86.08%)
Test: Average loss: 0.5696, Accuracy: 8098/10000 (80.98%)
================================================================
Train Epoch: 3 [0/50000 (0%)]   Loss: 0.516641
Train Epoch: 3 [25600/50000 (51%)]  Loss: 0.555406
================================================================
Training: Average loss: 0.4183, Accuracy: 42771/50000 (85.54%)
Test: Average loss: 0.5795, Accuracy: 8032/10000 (80.32%)
================================================================
Train Epoch: 4 [0/50000 (0%)]   Loss: 0.598518
Train Epoch: 4 [25600/50000 (51%)]  Loss: 0.573049
================================================================
Training: Average loss: 0.4133, Accuracy: 42951/50000 (85.90%)
Test: Average loss: 0.5675, Accuracy: 8089/10000 (80.89%)
================================================================
Train Epoch: 5 [0/50000 (0%)]   Loss: 0.527070
Train Epoch: 5 [25600/50000 (51%)]  Loss: 0.614387
Model Saved!!
================================================================
Training: Average loss: 0.3868, Accuracy: 43440/50000 (86.88%)
Test: Average loss: 0.5554, Accuracy: 8137/10000 (81.37%)
================================================================
Train Epoch: 6 [0/50000 (0%)]   Loss: 0.565510
Train Epoch: 6 [25600/50000 (51%)]  Loss: 0.602492
================================================================
Training: Average loss: 0.3871, Accuracy: 43596/50000 (87.19%)
Test: Average loss: 0.5446, Accuracy: 8168/10000 (81.68%)
================================================================
Train Epoch: 7 [0/50000 (0%)]   Loss: 0.490629
Train Epoch: 7 [25600/50000 (51%)]  Loss: 0.536285
================================================================
Training: Average loss: 0.3814, Accuracy: 43470/50000 (86.94%)
Test: Average loss: 0.5634, Accuracy: 8186/10000 (81.86%)
================================================================
Train Epoch: 8 [0/50000 (0%)]   Loss: 0.553012
Train Epoch: 8 [25600/50000 (51%)]  Loss: 0.536285
================================================================
Training: Average loss: 0.4057, Accuracy: 42966/50000 (85.93%)
Test: Average loss: 0.5833, Accuracy: 8032/10000 (80.32%)
================================================================
Train Epoch: 9 [0/50000 (0%)]   Loss: 0.590967
Train Epoch: 9 [25600/50000 (51%)]  Loss: 0.573144
================================================================
Training: Average loss: 0.3930, Accuracy: 43397/50000 (86.79%)
Test: Average loss: 0.5612, Accuracy: 8117/10000 (81.17%)
================================================================
Train Epoch: 10 [0/50000 (0%)]  Loss: 0.596897
Train Epoch: 10 [25600/50000 (51%)] Loss: 0.543568
Model Saved!!
================================================================
Training: Average loss: 0.3883, Accuracy: 43365/50000 (86.73%)
Test: Average loss: 0.5681, Accuracy: 8071/10000 (80.71%)
================================================================
Train Epoch: 11 [0/50000 (0%)]  Loss: 0.533335
Train Epoch: 11 [25600/50000 (51%)] Loss: 0.481838
================================================================
Training: Average loss: 0.3627, Accuracy: 43649/50000 (87.30%)
Test: Average loss: 0.5548, Accuracy: 8168/10000 (81.68%)
================================================================
Train Epoch: 12 [0/50000 (0%)]  Loss: 0.460189
Train Epoch: 12 [25600/50000 (51%)] Loss: 0.506775
================================================================
Training: Average loss: 0.3648, Accuracy: 43827/50000 (87.65%)
Test: Average loss: 0.5437, Accuracy: 8196/10000 (81.96%)
================================================================
Train Epoch: 13 [0/50000 (0%)]  Loss: 0.526936
Train Epoch: 13 [25600/50000 (51%)] Loss: 0.472582
================================================================
Training: Average loss: 0.3626, Accuracy: 43789/50000 (87.58%)
Test: Average loss: 0.5504, Accuracy: 8186/10000 (81.86%)
================================================================
Train Epoch: 14 [0/50000 (0%)]  Loss: 0.468379
Train Epoch: 14 [25600/50000 (51%)] Loss: 0.446009
================================================================
Training: Average loss: 0.3700, Accuracy: 43694/50000 (87.39%)
Test: Average loss: 0.5556, Accuracy: 8139/10000 (81.39%)
================================================================
Train Epoch: 15 [0/50000 (0%)]  Loss: 0.432307
Train Epoch: 15 [25600/50000 (51%)] Loss: 0.526412
Model Saved!!
================================================================
Training: Average loss: 0.3775, Accuracy: 43652/50000 (87.30%)
Test: Average loss: 0.5613, Accuracy: 8136/10000 (81.36%)
================================================================
Train Epoch: 16 [0/50000 (0%)]  Loss: 0.481947
Train Epoch: 16 [25600/50000 (51%)] Loss: 0.463230
================================================================
Training: Average loss: 0.3619, Accuracy: 43623/50000 (87.25%)
Test: Average loss: 0.5918, Accuracy: 8086/10000 (80.86%)
================================================================
Train Epoch: 17 [0/50000 (0%)]  Loss: 0.592893
Train Epoch: 17 [25600/50000 (51%)] Loss: 0.571142
================================================================
Training: Average loss: 0.3437, Accuracy: 44104/50000 (88.21%)
Test: Average loss: 0.5618, Accuracy: 8173/10000 (81.73%)
================================================================
Train Epoch: 18 [0/50000 (0%)]  Loss: 0.523350
Train Epoch: 18 [25600/50000 (51%)] Loss: 0.485788
================================================================
Training: Average loss: 0.3498, Accuracy: 43922/50000 (87.84%)
Test: Average loss: 0.5669, Accuracy: 8171/10000 (81.71%)
================================================================
Train Epoch: 19 [0/50000 (0%)]  Loss: 0.503251
Train Epoch: 19 [25600/50000 (51%)] Loss: 0.466521
================================================================
Training: Average loss: 0.3436, Accuracy: 44148/50000 (88.30%)
Test: Average loss: 0.5509, Accuracy: 8178/10000 (81.78%)
================================================================
Train Epoch: 20 [0/50000 (0%)]  Loss: 0.479494
Train Epoch: 20 [25600/50000 (51%)] Loss: 0.476850
Model Saved!!
================================================================
Training: Average loss: 0.3432, Accuracy: 44188/50000 (88.38%)
Test: Average loss: 0.5502, Accuracy: 8189/10000 (81.89%)
================================================================
Train Epoch: 21 [0/50000 (0%)]  Loss: 0.385226
Train Epoch: 21 [25600/50000 (51%)] Loss: 0.451704
================================================================
Training: Average loss: 0.3429, Accuracy: 44156/50000 (88.31%)
Test: Average loss: 0.5574, Accuracy: 8170/10000 (81.70%)
================================================================
Train Epoch: 22 [0/50000 (0%)]  Loss: 0.579174
Train Epoch: 22 [25600/50000 (51%)] Loss: 0.433038
================================================================
Training: Average loss: 0.3460, Accuracy: 44074/50000 (88.15%)
Test: Average loss: 0.5541, Accuracy: 8182/10000 (81.82%)
================================================================
Train Epoch: 23 [0/50000 (0%)]  Loss: 0.489480
Train Epoch: 23 [25600/50000 (51%)] Loss: 0.519216
================================================================
Training: Average loss: 0.3496, Accuracy: 43946/50000 (87.89%)
Test: Average loss: 0.5845, Accuracy: 8108/10000 (81.08%)
================================================================
Train Epoch: 24 [0/50000 (0%)]  Loss: 0.485998
Train Epoch: 24 [25600/50000 (51%)] Loss: 0.396603
================================================================
Training: Average loss: 0.3351, Accuracy: 44316/50000 (88.63%)
Test: Average loss: 0.5520, Accuracy: 8164/10000 (81.64%)
================================================================
Train Epoch: 25 [0/50000 (0%)]  Loss: 0.468261
Train Epoch: 25 [25600/50000 (51%)] Loss: 0.517213
Model Saved!!
================================================================
Training: Average loss: 0.3340, Accuracy: 44315/50000 (88.63%)
Test: Average loss: 0.5592, Accuracy: 8167/10000 (81.67%)
================================================================
Train Epoch: 26 [0/50000 (0%)]  Loss: 0.516224
Train Epoch: 26 [25600/50000 (51%)] Loss: 0.435009
================================================================
Training: Average loss: 0.3209, Accuracy: 44451/50000 (88.90%)
Test: Average loss: 0.5547, Accuracy: 8196/10000 (81.96%)
================================================================
Train Epoch: 27 [0/50000 (0%)]  Loss: 0.487623
Train Epoch: 27 [25600/50000 (51%)] Loss: 0.496077
================================================================
Training: Average loss: 0.3202, Accuracy: 44545/50000 (89.09%)
Test: Average loss: 0.5394, Accuracy: 8238/10000 (82.38%)
================================================================
Train Epoch: 28 [0/50000 (0%)]  Loss: 0.472656
Train Epoch: 28 [25600/50000 (51%)] Loss: 0.577069
================================================================
Training: Average loss: 0.3346, Accuracy: 44437/50000 (88.87%)
Test: Average loss: 0.5590, Accuracy: 8146/10000 (81.46%)
================================================================
Train Epoch: 29 [0/50000 (0%)]  Loss: 0.448704
Train Epoch: 29 [25600/50000 (51%)] Loss: 0.539133
================================================================
Training: Average loss: 0.3227, Accuracy: 44583/50000 (89.17%)
Test: Average loss: 0.5557, Accuracy: 8174/10000 (81.74%)
================================================================
Train Epoch: 30 [0/50000 (0%)]  Loss: 0.457088
Train Epoch: 30 [25600/50000 (51%)] Loss: 0.428602
Model Saved!!
================================================================
Training: Average loss: 0.3325, Accuracy: 44424/50000 (88.85%)
Test: Average loss: 0.5694, Accuracy: 8126/10000 (81.26%)
================================================================
Train Epoch: 31 [0/50000 (0%)]  Loss: 0.461506
Train Epoch: 31 [25600/50000 (51%)] Loss: 0.488916
================================================================
Training: Average loss: 0.3142, Accuracy: 44811/50000 (89.62%)
Test: Average loss: 0.5528, Accuracy: 8199/10000 (81.99%)
================================================================
Train Epoch: 32 [0/50000 (0%)]  Loss: 0.451073
Train Epoch: 32 [25600/50000 (51%)] Loss: 0.480126
================================================================
Training: Average loss: 0.3026, Accuracy: 44998/50000 (90.00%)
Test: Average loss: 0.5413, Accuracy: 8225/10000 (82.25%)
================================================================
Train Epoch: 33 [0/50000 (0%)]  Loss: 0.480847
Train Epoch: 33 [25600/50000 (51%)] Loss: 0.410212
================================================================
Training: Average loss: 0.3123, Accuracy: 44684/50000 (89.37%)
Test: Average loss: 0.5600, Accuracy: 8183/10000 (81.83%)
================================================================
Train Epoch: 34 [0/50000 (0%)]  Loss: 0.357234
Train Epoch: 34 [25600/50000 (51%)] Loss: 0.531273
================================================================
Training: Average loss: 0.3012, Accuracy: 44862/50000 (89.72%)
Test: Average loss: 0.5685, Accuracy: 8178/10000 (81.78%)
================================================================
Train Epoch: 35 [0/50000 (0%)]  Loss: 0.422016
Train Epoch: 35 [25600/50000 (51%)] Loss: 0.399642
Model Saved!!
================================================================
Training: Average loss: 0.3265, Accuracy: 44413/50000 (88.83%)
Test: Average loss: 0.5938, Accuracy: 8088/10000 (80.88%)
================================================================
Train Epoch: 36 [0/50000 (0%)]  Loss: 0.464333
Train Epoch: 36 [25600/50000 (51%)] Loss: 0.433502
================================================================
Training: Average loss: 0.3083, Accuracy: 44736/50000 (89.47%)
Test: Average loss: 0.5689, Accuracy: 8142/10000 (81.42%)
================================================================
Train Epoch: 37 [0/50000 (0%)]  Loss: 0.382809
Train Epoch: 37 [25600/50000 (51%)] Loss: 0.441029
================================================================
Training: Average loss: 0.3156, Accuracy: 44498/50000 (89.00%)
Test: Average loss: 0.5879, Accuracy: 8159/10000 (81.59%)
================================================================
Train Epoch: 38 [0/50000 (0%)]  Loss: 0.429439
Train Epoch: 38 [25600/50000 (51%)] Loss: 0.500910
================================================================
Training: Average loss: 0.3205, Accuracy: 44445/50000 (88.89%)
Test: Average loss: 0.5828, Accuracy: 8107/10000 (81.07%)
================================================================
Train Epoch: 39 [0/50000 (0%)]  Loss: 0.424582
Train Epoch: 39 [25600/50000 (51%)] Loss: 0.438712
================================================================
Training: Average loss: 0.3024, Accuracy: 44767/50000 (89.53%)
Test: Average loss: 0.5674, Accuracy: 8186/10000 (81.86%)
================================================================
Train Epoch: 40 [0/50000 (0%)]  Loss: 0.474747
Train Epoch: 40 [25600/50000 (51%)] Loss: 0.493033
Model Saved!!
================================================================
Training: Average loss: 0.2966, Accuracy: 45159/50000 (90.32%)
Test: Average loss: 0.5458, Accuracy: 8218/10000 (82.18%)
================================================================
Train Epoch: 41 [0/50000 (0%)]  Loss: 0.392665
Train Epoch: 41 [25600/50000 (51%)] Loss: 0.418640
================================================================
Training: Average loss: 0.3059, Accuracy: 44785/50000 (89.57%)
Test: Average loss: 0.5752, Accuracy: 8114/10000 (81.14%)
================================================================
Train Epoch: 42 [0/50000 (0%)]  Loss: 0.452283
Train Epoch: 42 [25600/50000 (51%)] Loss: 0.391786
================================================================
Training: Average loss: 0.2947, Accuracy: 45008/50000 (90.02%)
Test: Average loss: 0.5646, Accuracy: 8173/10000 (81.73%)
================================================================
Train Epoch: 43 [0/50000 (0%)]  Loss: 0.382815
Train Epoch: 43 [25600/50000 (51%)] Loss: 0.445076
================================================================
Training: Average loss: 0.2855, Accuracy: 45150/50000 (90.30%)
Test: Average loss: 0.5730, Accuracy: 8160/10000 (81.60%)
================================================================
Train Epoch: 44 [0/50000 (0%)]  Loss: 0.442664
Train Epoch: 44 [25600/50000 (51%)] Loss: 0.427532
================================================================
Training: Average loss: 0.2754, Accuracy: 45281/50000 (90.56%)
Test: Average loss: 0.5721, Accuracy: 8215/10000 (82.15%)
================================================================
Train Epoch: 45 [0/50000 (0%)]  Loss: 0.358074
Train Epoch: 45 [25600/50000 (51%)] Loss: 0.362208
Model Saved!!
================================================================
Training: Average loss: 0.2829, Accuracy: 45201/50000 (90.40%)
Test: Average loss: 0.5594, Accuracy: 8215/10000 (82.15%)
================================================================
Train Epoch: 46 [0/50000 (0%)]  Loss: 0.385695
Train Epoch: 46 [25600/50000 (51%)] Loss: 0.425226
================================================================
Training: Average loss: 0.2941, Accuracy: 44855/50000 (89.71%)
Test: Average loss: 0.5936, Accuracy: 8121/10000 (81.21%)
================================================================
Train Epoch: 47 [0/50000 (0%)]  Loss: 0.335576
Train Epoch: 47 [25600/50000 (51%)] Loss: 0.408288
================================================================
Training: Average loss: 0.2864, Accuracy: 45060/50000 (90.12%)
Test: Average loss: 0.5714, Accuracy: 8193/10000 (81.93%)
